[
  {
    "confirmed":51621,
    "deaths":3559,
    "country":"Canada",
    "date":"2020-04-27T00:00:00.000Z",
    "population":75750184,
    "recovered":18268,
    "confirmed_daily":1619,
    "deaths_daily":185,
    "recovered_daily":1385
  },
  {
    "confirmed":53297,
    "deaths":3756,
    "country":"Canada",
    "date":"2020-04-28T00:00:00.000Z",
    "population":75750184,
    "recovered":19231,
    "confirmed_daily":1676,
    "deaths_daily":197,
    "recovered_daily":963
  },
  {
    "confirmed":55061,
    "deaths":4000,
    "country":"Canada",
    "date":"2020-04-29T00:00:00.000Z",
    "population":75750184,
    "recovered":20327,
    "confirmed_daily":1764,
    "deaths_daily":244,
    "recovered_daily":1096
  },
  {
    "confirmed":56716,
    "deaths":4179,
    "country":"Canada",
    "date":"2020-04-30T00:00:00.000Z",
    "population":75750184,
    "recovered":21424,
    "confirmed_daily":1655,
    "deaths_daily":179,
    "recovered_daily":1097
  },
  {
    "confirmed":58549,
    "deaths":4381,
    "country":"Canada",
    "date":"2020-05-01T00:00:00.000Z",
    "population":75750184,
    "recovered":22764,
    "confirmed_daily":1833,
    "deaths_daily":202,
    "recovered_daily":1340
  },
  {
    "confirmed":60023,
    "deaths":4529,
    "country":"Canada",
    "date":"2020-05-02T00:00:00.000Z",
    "population":75750184,
    "recovered":23814,
    "confirmed_daily":1474,
    "deaths_daily":148,
    "recovered_daily":1050
  },
  {
    "confirmed":61183,
    "deaths":4669,
    "country":"Canada",
    "date":"2020-05-03T00:00:00.000Z",
    "population":75750184,
    "recovered":24921,
    "confirmed_daily":1160,
    "deaths_daily":140,
    "recovered_daily":1107
  },
  {
    "confirmed":62743,
    "deaths":4911,
    "country":"Canada",
    "date":"2020-05-04T00:00:00.000Z",
    "population":75750184,
    "recovered":26030,
    "confirmed_daily":1560,
    "deaths_daily":242,
    "recovered_daily":1109
  },
  {
    "confirmed":64100,
    "deaths":5081,
    "country":"Canada",
    "date":"2020-05-05T00:00:00.000Z",
    "population":75750184,
    "recovered":27006,
    "confirmed_daily":1357,
    "deaths_daily":170,
    "recovered_daily":976
  },
  {
    "confirmed":65703,
    "deaths":5240,
    "country":"Canada",
    "date":"2020-05-06T00:00:00.000Z",
    "population":75750184,
    "recovered":28184,
    "confirmed_daily":1603,
    "deaths_daily":159,
    "recovered_daily":1178
  },
  {
    "confirmed":67146,
    "deaths":5387,
    "country":"Canada",
    "date":"2020-05-07T00:00:00.000Z",
    "population":75750184,
    "recovered":29260,
    "confirmed_daily":1443,
    "deaths_daily":147,
    "recovered_daily":1076
  },
  {
    "confirmed":68485,
    "deaths":5540,
    "country":"Canada",
    "date":"2020-05-08T00:00:00.000Z",
    "population":75750184,
    "recovered":30239,
    "confirmed_daily":1339,
    "deaths_daily":153,
    "recovered_daily":979
  },
  {
    "confirmed":69645,
    "deaths":5704,
    "country":"Canada",
    "date":"2020-05-09T00:00:00.000Z",
    "population":75750184,
    "recovered":31262,
    "confirmed_daily":1160,
    "deaths_daily":164,
    "recovered_daily":1023
  },
  {
    "confirmed":70736,
    "deaths":5822,
    "country":"Canada",
    "date":"2020-05-10T00:00:00.000Z",
    "population":75750184,
    "recovered":32109,
    "confirmed_daily":1091,
    "deaths_daily":118,
    "recovered_daily":847
  },
  {
    "confirmed":71886,
    "deaths":5956,
    "country":"Canada",
    "date":"2020-05-11T00:00:00.000Z",
    "population":75750184,
    "recovered":33007,
    "confirmed_daily":1150,
    "deaths_daily":134,
    "recovered_daily":898
  },
  {
    "confirmed":73083,
    "deaths":6107,
    "country":"Canada",
    "date":"2020-05-12T00:00:00.000Z",
    "population":75750184,
    "recovered":34055,
    "confirmed_daily":1197,
    "deaths_daily":151,
    "recovered_daily":1048
  },
  {
    "confirmed":74307,
    "deaths":6210,
    "country":"Canada",
    "date":"2020-05-13T00:00:00.000Z",
    "population":75750184,
    "recovered":35177,
    "confirmed_daily":1224,
    "deaths_daily":103,
    "recovered_daily":1122
  },
  {
    "confirmed":75428,
    "deaths":6331,
    "country":"Canada",
    "date":"2020-05-14T00:00:00.000Z",
    "population":75750184,
    "recovered":36104,
    "confirmed_daily":1121,
    "deaths_daily":121,
    "recovered_daily":927
  },
  {
    "confirmed":76691,
    "deaths":6452,
    "country":"Canada",
    "date":"2020-05-15T00:00:00.000Z",
    "population":75750184,
    "recovered":36908,
    "confirmed_daily":1263,
    "deaths_daily":121,
    "recovered_daily":804
  },
  {
    "confirmed":77871,
    "deaths":6571,
    "country":"Canada",
    "date":"2020-05-16T00:00:00.000Z",
    "population":75750184,
    "recovered":37832,
    "confirmed_daily":1180,
    "deaths_daily":119,
    "recovered_daily":924
  },
  {
    "confirmed":78992,
    "deaths":6661,
    "country":"Canada",
    "date":"2020-05-17T00:00:00.000Z",
    "population":75750184,
    "recovered":38563,
    "confirmed_daily":1121,
    "deaths_daily":90,
    "recovered_daily":731
  },
  {
    "confirmed":80033,
    "deaths":6753,
    "country":"Canada",
    "date":"2020-05-18T00:00:00.000Z",
    "population":75750184,
    "recovered":39251,
    "confirmed_daily":1041,
    "deaths_daily":92,
    "recovered_daily":688
  },
  {
    "confirmed":81183,
    "deaths":6828,
    "country":"Canada",
    "date":"2020-05-19T00:00:00.000Z",
    "population":75750184,
    "recovered":40069,
    "confirmed_daily":1150,
    "deaths_daily":75,
    "recovered_daily":818
  },
  {
    "confirmed":82488,
    "deaths":6950,
    "country":"Canada",
    "date":"2020-05-20T00:00:00.000Z",
    "population":75750184,
    "recovered":40793,
    "confirmed_daily":1305,
    "deaths_daily":122,
    "recovered_daily":724
  },
  {
    "confirmed":83650,
    "deaths":7046,
    "country":"Canada",
    "date":"2020-05-21T00:00:00.000Z",
    "population":75750184,
    "recovered":41731,
    "confirmed_daily":1162,
    "deaths_daily":96,
    "recovered_daily":938
  },
  {
    "confirmed":84814,
    "deaths":7144,
    "country":"Canada",
    "date":"2020-05-22T00:00:00.000Z",
    "population":75750184,
    "recovered":42608,
    "confirmed_daily":1164,
    "deaths_daily":98,
    "recovered_daily":877
  },
  {
    "confirmed":85823,
    "deaths":7238,
    "country":"Canada",
    "date":"2020-05-23T00:00:00.000Z",
    "population":75750184,
    "recovered":43318,
    "confirmed_daily":1009,
    "deaths_daily":94,
    "recovered_daily":710
  },
  {
    "confirmed":86749,
    "deaths":7326,
    "country":"Canada",
    "date":"2020-05-24T00:00:00.000Z",
    "population":75750184,
    "recovered":43998,
    "confirmed_daily":926,
    "deaths_daily":88,
    "recovered_daily":680
  },
  {
    "confirmed":87697,
    "deaths":7420,
    "country":"Canada",
    "date":"2020-05-25T00:00:00.000Z",
    "population":75750184,
    "recovered":44651,
    "confirmed_daily":948,
    "deaths_daily":94,
    "recovered_daily":653
  },
  {
    "confirmed":88502,
    "deaths":7512,
    "country":"Canada",
    "date":"2020-05-26T00:00:00.000Z",
    "population":75750184,
    "recovered":45352,
    "confirmed_daily":805,
    "deaths_daily":92,
    "recovered_daily":701
  },
  {
    "confirmed":89380,
    "deaths":7606,
    "country":"Canada",
    "date":"2020-05-27T00:00:00.000Z",
    "population":75750184,
    "recovered":46248,
    "confirmed_daily":878,
    "deaths_daily":94,
    "recovered_daily":896
  },
  {
    "confirmed":90219,
    "deaths":7717,
    "country":"Canada",
    "date":"2020-05-28T00:00:00.000Z",
    "population":75750184,
    "recovered":46961,
    "confirmed_daily":839,
    "deaths_daily":111,
    "recovered_daily":713
  },
  {
    "confirmed":91054,
    "deaths":7797,
    "country":"Canada",
    "date":"2020-05-29T00:00:00.000Z",
    "population":75750184,
    "recovered":47905,
    "confirmed_daily":835,
    "deaths_daily":80,
    "recovered_daily":944
  },
  {
    "confirmed":91805,
    "deaths":7857,
    "country":"Canada",
    "date":"2020-05-30T00:00:00.000Z",
    "population":75750184,
    "recovered":48517,
    "confirmed_daily":751,
    "deaths_daily":60,
    "recovered_daily":612
  },
  {
    "confirmed":92488,
    "deaths":7906,
    "country":"Canada",
    "date":"2020-05-31T00:00:00.000Z",
    "population":75750184,
    "recovered":49213,
    "confirmed_daily":683,
    "deaths_daily":49,
    "recovered_daily":696
  },
  {
    "confirmed":93330,
    "deaths":7952,
    "country":"Canada",
    "date":"2020-06-01T00:00:00.000Z",
    "population":75750184,
    "recovered":50091,
    "confirmed_daily":842,
    "deaths_daily":46,
    "recovered_daily":878
  },
  {
    "confirmed":93991,
    "deaths":8008,
    "country":"Canada",
    "date":"2020-06-02T00:00:00.000Z",
    "population":75750184,
    "recovered":50725,
    "confirmed_daily":661,
    "deaths_daily":56,
    "recovered_daily":634
  },
  {
    "confirmed":94658,
    "deaths":8062,
    "country":"Canada",
    "date":"2020-06-03T00:00:00.000Z",
    "population":75750184,
    "recovered":51506,
    "confirmed_daily":667,
    "deaths_daily":54,
    "recovered_daily":781
  },
  {
    "confirmed":95283,
    "deaths":8126,
    "country":"Canada",
    "date":"2020-06-04T00:00:00.000Z",
    "population":75750184,
    "recovered":52184,
    "confirmed_daily":625,
    "deaths_daily":64,
    "recovered_daily":678
  },
  {
    "confirmed":95949,
    "deaths":8166,
    "country":"Canada",
    "date":"2020-06-05T00:00:00.000Z",
    "population":75750184,
    "recovered":53074,
    "confirmed_daily":666,
    "deaths_daily":40,
    "recovered_daily":890
  },
  {
    "confirmed":96497,
    "deaths":8228,
    "country":"Canada",
    "date":"2020-06-06T00:00:00.000Z",
    "population":75750184,
    "recovered":54087,
    "confirmed_daily":548,
    "deaths_daily":62,
    "recovered_daily":1013
  },
  {
    "confirmed":97164,
    "deaths":8269,
    "country":"Canada",
    "date":"2020-06-07T00:00:00.000Z",
    "population":75750184,
    "recovered":54675,
    "confirmed_daily":667,
    "deaths_daily":41,
    "recovered_daily":588
  },
  {
    "confirmed":97685,
    "deaths":8313,
    "country":"Canada",
    "date":"2020-06-08T00:00:00.000Z",
    "population":75750184,
    "recovered":55343,
    "confirmed_daily":521,
    "deaths_daily":44,
    "recovered_daily":668
  },
  {
    "confirmed":98174,
    "deaths":8347,
    "country":"Canada",
    "date":"2020-06-09T00:00:00.000Z",
    "population":75750184,
    "recovered":56117,
    "confirmed_daily":489,
    "deaths_daily":34,
    "recovered_daily":774
  },
  {
    "confirmed":98669,
    "deaths":8382,
    "country":"Canada",
    "date":"2020-06-10T00:00:00.000Z",
    "population":75750184,
    "recovered":57215,
    "confirmed_daily":495,
    "deaths_daily":35,
    "recovered_daily":1098
  },
  {
    "confirmed":99118,
    "deaths":8413,
    "country":"Canada",
    "date":"2020-06-11T00:00:00.000Z",
    "population":75750184,
    "recovered":58131,
    "confirmed_daily":449,
    "deaths_daily":31,
    "recovered_daily":916
  },
  {
    "confirmed":99548,
    "deaths":8442,
    "country":"Canada",
    "date":"2020-06-12T00:00:00.000Z",
    "population":75750184,
    "recovered":59034,
    "confirmed_daily":430,
    "deaths_daily":29,
    "recovered_daily":903
  },
  {
    "confirmed":99959,
    "deaths":8470,
    "country":"Canada",
    "date":"2020-06-13T00:00:00.000Z",
    "population":75750184,
    "recovered":59851,
    "confirmed_daily":411,
    "deaths_daily":28,
    "recovered_daily":817
  },
  {
    "confirmed":100286,
    "deaths":8489,
    "country":"Canada",
    "date":"2020-06-14T00:00:00.000Z",
    "population":75750184,
    "recovered":60668,
    "confirmed_daily":327,
    "deaths_daily":19,
    "recovered_daily":817
  },
  {
    "confirmed":100655,
    "deaths":8497,
    "country":"Canada",
    "date":"2020-06-15T00:00:00.000Z",
    "population":75750184,
    "recovered":61466,
    "confirmed_daily":369,
    "deaths_daily":8,
    "recovered_daily":798
  },
  {
    "confirmed":101021,
    "deaths":8521,
    "country":"Canada",
    "date":"2020-06-16T00:00:00.000Z",
    "population":75750184,
    "recovered":61899,
    "confirmed_daily":366,
    "deaths_daily":24,
    "recovered_daily":433
  },
  {
    "confirmed":101429,
    "deaths":8542,
    "country":"Canada",
    "date":"2020-06-17T00:00:00.000Z",
    "population":75750184,
    "recovered":63280,
    "confirmed_daily":408,
    "deaths_daily":21,
    "recovered_daily":1381
  },
  {
    "confirmed":101830,
    "deaths":8555,
    "country":"Canada",
    "date":"2020-06-18T00:00:00.000Z",
    "population":75750184,
    "recovered":63782,
    "confirmed_daily":401,
    "deaths_daily":13,
    "recovered_daily":502
  },
  {
    "confirmed":102233,
    "deaths":8580,
    "country":"Canada",
    "date":"2020-06-19T00:00:00.000Z",
    "population":75750184,
    "recovered":64318,
    "confirmed_daily":403,
    "deaths_daily":25,
    "recovered_daily":536
  },
  {
    "confirmed":102652,
    "deaths":8609,
    "country":"Canada",
    "date":"2020-06-20T00:00:00.000Z",
    "population":75750184,
    "recovered":64826,
    "confirmed_daily":419,
    "deaths_daily":29,
    "recovered_daily":508
  },
  {
    "confirmed":102957,
    "deaths":8626,
    "country":"Canada",
    "date":"2020-06-21T00:00:00.000Z",
    "population":75750184,
    "recovered":65249,
    "confirmed_daily":305,
    "deaths_daily":17,
    "recovered_daily":423
  },
  {
    "confirmed":103313,
    "deaths":8646,
    "country":"Canada",
    "date":"2020-06-22T00:00:00.000Z",
    "population":75750184,
    "recovered":65721,
    "confirmed_daily":356,
    "deaths_daily":20,
    "recovered_daily":472
  },
  {
    "confirmed":103707,
    "deaths":8670,
    "country":"Canada",
    "date":"2020-06-23T00:00:00.000Z",
    "population":75750184,
    "recovered":66135,
    "confirmed_daily":394,
    "deaths_daily":24,
    "recovered_daily":414
  },
  {
    "confirmed":104063,
    "deaths":8700,
    "country":"Canada",
    "date":"2020-06-24T00:00:00.000Z",
    "population":75750184,
    "recovered":66533,
    "confirmed_daily":356,
    "deaths_daily":30,
    "recovered_daily":398
  },
  {
    "confirmed":104387,
    "deaths":8723,
    "country":"Canada",
    "date":"2020-06-25T00:00:00.000Z",
    "population":75750184,
    "recovered":66869,
    "confirmed_daily":324,
    "deaths_daily":23,
    "recovered_daily":336
  },
  {
    "confirmed":104638,
    "deaths":8730,
    "country":"Canada",
    "date":"2020-06-26T00:00:00.000Z",
    "population":75750184,
    "recovered":67182,
    "confirmed_daily":251,
    "deaths_daily":7,
    "recovered_daily":313
  },
  {
    "confirmed":104975,
    "deaths":8739,
    "country":"Canada",
    "date":"2020-06-27T00:00:00.000Z",
    "population":75750184,
    "recovered":67445,
    "confirmed_daily":337,
    "deaths_daily":9,
    "recovered_daily":263
  },
  {
    "confirmed":105348,
    "deaths":8749,
    "country":"Canada",
    "date":"2020-06-28T00:00:00.000Z",
    "population":75750184,
    "recovered":67689,
    "confirmed_daily":373,
    "deaths_daily":10,
    "recovered_daily":244
  },
  {
    "confirmed":105732,
    "deaths":8768,
    "country":"Canada",
    "date":"2020-06-29T00:00:00.000Z",
    "population":75750184,
    "recovered":68698,
    "confirmed_daily":384,
    "deaths_daily":19,
    "recovered_daily":1009
  },
  {
    "confirmed":106029,
    "deaths":8780,
    "country":"Canada",
    "date":"2020-06-30T00:00:00.000Z",
    "population":75750184,
    "recovered":69120,
    "confirmed_daily":297,
    "deaths_daily":12,
    "recovered_daily":422
  },
  {
    "confirmed":106227,
    "deaths":8790,
    "country":"Canada",
    "date":"2020-07-01T00:00:00.000Z",
    "population":75750184,
    "recovered":69397,
    "confirmed_daily":198,
    "deaths_daily":10,
    "recovered_daily":277
  },
  {
    "confirmed":106583,
    "deaths":8806,
    "country":"Canada",
    "date":"2020-07-02T00:00:00.000Z",
    "population":75750184,
    "recovered":69872,
    "confirmed_daily":356,
    "deaths_daily":16,
    "recovered_daily":475
  },
  {
    "confirmed":106903,
    "deaths":8813,
    "country":"Canada",
    "date":"2020-07-03T00:00:00.000Z",
    "population":75750184,
    "recovered":70232,
    "confirmed_daily":320,
    "deaths_daily":7,
    "recovered_daily":360
  },
  {
    "confirmed":107116,
    "deaths":8821,
    "country":"Canada",
    "date":"2020-07-04T00:00:00.000Z",
    "population":75750184,
    "recovered":70507,
    "confirmed_daily":213,
    "deaths_daily":8,
    "recovered_daily":275
  },
  {
    "confirmed":107303,
    "deaths":8823,
    "country":"Canada",
    "date":"2020-07-05T00:00:00.000Z",
    "population":75750184,
    "recovered":70772,
    "confirmed_daily":187,
    "deaths_daily":2,
    "recovered_daily":265
  },
  {
    "confirmed":107718,
    "deaths":8836,
    "country":"Canada",
    "date":"2020-07-06T00:00:00.000Z",
    "population":75750184,
    "recovered":71141,
    "confirmed_daily":415,
    "deaths_daily":13,
    "recovered_daily":369
  },
  {
    "confirmed":107973,
    "deaths":8843,
    "country":"Canada",
    "date":"2020-07-07T00:00:00.000Z",
    "population":75750184,
    "recovered":71418,
    "confirmed_daily":255,
    "deaths_daily":7,
    "recovered_daily":277
  },
  {
    "confirmed":108302,
    "deaths":8855,
    "country":"Canada",
    "date":"2020-07-08T00:00:00.000Z",
    "population":75750184,
    "recovered":71805,
    "confirmed_daily":329,
    "deaths_daily":12,
    "recovered_daily":387
  },
  {
    "confirmed":108617,
    "deaths":8865,
    "country":"Canada",
    "date":"2020-07-09T00:00:00.000Z",
    "population":75750184,
    "recovered":72095,
    "confirmed_daily":315,
    "deaths_daily":10,
    "recovered_daily":290
  },
  {
    "confirmed":108957,
    "deaths":8879,
    "country":"Canada",
    "date":"2020-07-10T00:00:00.000Z",
    "population":75750184,
    "recovered":72466,
    "confirmed_daily":340,
    "deaths_daily":14,
    "recovered_daily":371
  },
  {
    "confirmed":109133,
    "deaths":8882,
    "country":"Canada",
    "date":"2020-07-11T00:00:00.000Z",
    "population":75750184,
    "recovered":72784,
    "confirmed_daily":176,
    "deaths_daily":3,
    "recovered_daily":318
  },
  {
    "confirmed":109292,
    "deaths":8887,
    "country":"Canada",
    "date":"2020-07-12T00:00:00.000Z",
    "population":75750184,
    "recovered":72954,
    "confirmed_daily":159,
    "deaths_daily":5,
    "recovered_daily":170
  },
  {
    "confirmed":109965,
    "deaths":8895,
    "country":"Canada",
    "date":"2020-07-13T00:00:00.000Z",
    "population":75750184,
    "recovered":73381,
    "confirmed_daily":673,
    "deaths_daily":8,
    "recovered_daily":427
  },
  {
    "confirmed":110352,
    "deaths":8900,
    "country":"Canada",
    "date":"2020-07-14T00:00:00.000Z",
    "population":75750184,
    "recovered":73713,
    "confirmed_daily":387,
    "deaths_daily":5,
    "recovered_daily":332
  },
  {
    "confirmed":110713,
    "deaths":8914,
    "country":"Canada",
    "date":"2020-07-15T00:00:00.000Z",
    "population":75750184,
    "recovered":74067,
    "confirmed_daily":361,
    "deaths_daily":14,
    "recovered_daily":354
  },
  {
    "confirmed":111160,
    "deaths":8926,
    "country":"Canada",
    "date":"2020-07-16T00:00:00.000Z",
    "population":75750184,
    "recovered":74433,
    "confirmed_daily":447,
    "deaths_daily":12,
    "recovered_daily":366
  },
  {
    "confirmed":111630,
    "deaths":8936,
    "country":"Canada",
    "date":"2020-07-17T00:00:00.000Z",
    "population":75750184,
    "recovered":98281,
    "confirmed_daily":470,
    "deaths_daily":10,
    "recovered_daily":23848
  },
  {
    "confirmed":111976,
    "deaths":8939,
    "country":"Canada",
    "date":"2020-07-18T00:00:00.000Z",
    "population":75750184,
    "recovered":98436,
    "confirmed_daily":346,
    "deaths_daily":3,
    "recovered_daily":155
  },
  {
    "confirmed":112231,
    "deaths":8943,
    "country":"Canada",
    "date":"2020-07-19T00:00:00.000Z",
    "population":75750184,
    "recovered":98564,
    "confirmed_daily":255,
    "deaths_daily":4,
    "recovered_daily":128
  },
  {
    "confirmed":112982,
    "deaths":8947,
    "country":"Canada",
    "date":"2020-07-20T00:00:00.000Z",
    "population":75750184,
    "recovered":98975,
    "confirmed_daily":751,
    "deaths_daily":4,
    "recovered_daily":411
  },
  {
    "confirmed":113487,
    "deaths":8954,
    "country":"Canada",
    "date":"2020-07-21T00:00:00.000Z",
    "population":75750184,
    "recovered":99248,
    "confirmed_daily":505,
    "deaths_daily":7,
    "recovered_daily":273
  },
  {
    "confirmed":113836,
    "deaths":8958,
    "country":"Canada",
    "date":"2020-07-22T00:00:00.000Z",
    "population":75750184,
    "recovered":99501,
    "confirmed_daily":349,
    "deaths_daily":4,
    "recovered_daily":253
  },
  {
    "confirmed":114494,
    "deaths":8966,
    "country":"Canada",
    "date":"2020-07-23T00:00:00.000Z",
    "population":75750184,
    "recovered":99937,
    "confirmed_daily":658,
    "deaths_daily":8,
    "recovered_daily":436
  },
  {
    "confirmed":115208,
    "deaths":8970,
    "country":"Canada",
    "date":"2020-07-24T00:00:00.000Z",
    "population":75750184,
    "recovered":100504,
    "confirmed_daily":714,
    "deaths_daily":4,
    "recovered_daily":567
  },
  {
    "confirmed":115554,
    "deaths":8974,
    "country":"Canada",
    "date":"2020-07-25T00:00:00.000Z",
    "population":75750184,
    "recovered":100765,
    "confirmed_daily":346,
    "deaths_daily":4,
    "recovered_daily":261
  },
  {
    "confirmed":115851,
    "deaths":8978,
    "country":"Canada",
    "date":"2020-07-26T00:00:00.000Z",
    "population":75750184,
    "recovered":100969,
    "confirmed_daily":297,
    "deaths_daily":4,
    "recovered_daily":204
  },
  {
    "confirmed":116477,
    "deaths":8991,
    "country":"Canada",
    "date":"2020-07-27T00:00:00.000Z",
    "population":75750184,
    "recovered":101447,
    "confirmed_daily":626,
    "deaths_daily":13,
    "recovered_daily":478
  },
  {
    "confirmed":116838,
    "deaths":9001,
    "country":"Canada",
    "date":"2020-07-28T00:00:00.000Z",
    "population":75750184,
    "recovered":101686,
    "confirmed_daily":361,
    "deaths_daily":10,
    "recovered_daily":239
  },
  {
    "confirmed":117325,
    "deaths":9006,
    "country":"Canada",
    "date":"2020-07-29T00:00:00.000Z",
    "population":75750184,
    "recovered":101992,
    "confirmed_daily":487,
    "deaths_daily":5,
    "recovered_daily":306
  },
  {
    "confirmed":117740,
    "deaths":9019,
    "country":"Canada",
    "date":"2020-07-30T00:00:00.000Z",
    "population":75750184,
    "recovered":102344,
    "confirmed_daily":415,
    "deaths_daily":13,
    "recovered_daily":352
  },
  {
    "confirmed":118297,
    "deaths":9025,
    "country":"Canada",
    "date":"2020-07-31T00:00:00.000Z",
    "population":75750184,
    "recovered":102906,
    "confirmed_daily":557,
    "deaths_daily":6,
    "recovered_daily":562
  },
  {
    "confirmed":118523,
    "deaths":9029,
    "country":"Canada",
    "date":"2020-08-01T00:00:00.000Z",
    "population":75750184,
    "recovered":103072,
    "confirmed_daily":226,
    "deaths_daily":4,
    "recovered_daily":166
  },
  {
    "confirmed":118719,
    "deaths":9032,
    "country":"Canada",
    "date":"2020-08-02T00:00:00.000Z",
    "population":75750184,
    "recovered":103201,
    "confirmed_daily":196,
    "deaths_daily":3,
    "recovered_daily":129
  },
  {
    "confirmed":118945,
    "deaths":9035,
    "country":"Canada",
    "date":"2020-08-03T00:00:00.000Z",
    "population":75750184,
    "recovered":103284,
    "confirmed_daily":226,
    "deaths_daily":3,
    "recovered_daily":83
  },
  {
    "confirmed":119658,
    "deaths":9043,
    "country":"Canada",
    "date":"2020-08-04T00:00:00.000Z",
    "population":75750184,
    "recovered":104058,
    "confirmed_daily":713,
    "deaths_daily":8,
    "recovered_daily":774
  },
  {
    "confirmed":120002,
    "deaths":9049,
    "country":"Canada",
    "date":"2020-08-05T00:00:00.000Z",
    "population":75750184,
    "recovered":104377,
    "confirmed_daily":344,
    "deaths_daily":6,
    "recovered_daily":319
  },
  {
    "confirmed":120315,
    "deaths":9055,
    "country":"Canada",
    "date":"2020-08-06T00:00:00.000Z",
    "population":75750184,
    "recovered":104678,
    "confirmed_daily":313,
    "deaths_daily":6,
    "recovered_daily":301
  },
  {
    "confirmed":120851,
    "deaths":9060,
    "country":"Canada",
    "date":"2020-08-07T00:00:00.000Z",
    "population":75750184,
    "recovered":105128,
    "confirmed_daily":536,
    "deaths_daily":5,
    "recovered_daily":450
  },
  {
    "confirmed":121084,
    "deaths":9064,
    "country":"Canada",
    "date":"2020-08-08T00:00:00.000Z",
    "population":75750184,
    "recovered":105255,
    "confirmed_daily":233,
    "deaths_daily":4,
    "recovered_daily":127
  },
  {
    "confirmed":121296,
    "deaths":9067,
    "country":"Canada",
    "date":"2020-08-09T00:00:00.000Z",
    "population":75750184,
    "recovered":105420,
    "confirmed_daily":212,
    "deaths_daily":3,
    "recovered_daily":165
  },
  {
    "confirmed":121926,
    "deaths":9074,
    "country":"Canada",
    "date":"2020-08-10T00:00:00.000Z",
    "population":75750184,
    "recovered":108050,
    "confirmed_daily":630,
    "deaths_daily":7,
    "recovered_daily":2630
  },
  {
    "confirmed":122271,
    "deaths":9080,
    "country":"Canada",
    "date":"2020-08-11T00:00:00.000Z",
    "population":75750184,
    "recovered":108465,
    "confirmed_daily":345,
    "deaths_daily":6,
    "recovered_daily":415
  },
  {
    "confirmed":122580,
    "deaths":9085,
    "country":"Canada",
    "date":"2020-08-12T00:00:00.000Z",
    "population":75750184,
    "recovered":108829,
    "confirmed_daily":309,
    "deaths_daily":5,
    "recovered_daily":364
  },
  {
    "confirmed":123051,
    "deaths":9091,
    "country":"Canada",
    "date":"2020-08-13T00:00:00.000Z",
    "population":75750184,
    "recovered":109260,
    "confirmed_daily":471,
    "deaths_daily":6,
    "recovered_daily":431
  },
  {
    "confirmed":123464,
    "deaths":9095,
    "country":"Canada",
    "date":"2020-08-14T00:00:00.000Z",
    "population":75750184,
    "recovered":109657,
    "confirmed_daily":413,
    "deaths_daily":4,
    "recovered_daily":397
  },
  {
    "confirmed":123670,
    "deaths":9101,
    "country":"Canada",
    "date":"2020-08-15T00:00:00.000Z",
    "population":75750184,
    "recovered":109933,
    "confirmed_daily":206,
    "deaths_daily":6,
    "recovered_daily":276
  },
  {
    "confirmed":123826,
    "deaths":9106,
    "country":"Canada",
    "date":"2020-08-16T00:00:00.000Z",
    "population":75750184,
    "recovered":110202,
    "confirmed_daily":156,
    "deaths_daily":5,
    "recovered_daily":269
  },
  {
    "confirmed":124035,
    "deaths":9108,
    "country":"Canada",
    "date":"2020-08-17T00:00:00.000Z",
    "population":75750184,
    "recovered":110433,
    "confirmed_daily":209,
    "deaths_daily":2,
    "recovered_daily":231
  },
  {
    "confirmed":124936,
    "deaths":9118,
    "country":"Canada",
    "date":"2020-08-18T00:00:00.000Z",
    "population":75750184,
    "recovered":111092,
    "confirmed_daily":901,
    "deaths_daily":10,
    "recovered_daily":659
  },
  {
    "confirmed":125269,
    "deaths":9124,
    "country":"Canada",
    "date":"2020-08-19T00:00:00.000Z",
    "population":75750184,
    "recovered":111559,
    "confirmed_daily":333,
    "deaths_daily":6,
    "recovered_daily":467
  },
  {
    "confirmed":125505,
    "deaths":9127,
    "country":"Canada",
    "date":"2020-08-20T00:00:00.000Z",
    "population":75750184,
    "recovered":111811,
    "confirmed_daily":236,
    "deaths_daily":3,
    "recovered_daily":252
  },
  {
    "confirmed":126212,
    "deaths":9141,
    "country":"Canada",
    "date":"2020-08-21T00:00:00.000Z",
    "population":75750184,
    "recovered":112381,
    "confirmed_daily":707,
    "deaths_daily":14,
    "recovered_daily":570
  },
  {
    "confirmed":126421,
    "deaths":9142,
    "country":"Canada",
    "date":"2020-08-22T00:00:00.000Z",
    "population":75750184,
    "recovered":112621,
    "confirmed_daily":209,
    "deaths_daily":1,
    "recovered_daily":240
  },
  {
    "confirmed":126680,
    "deaths":9146,
    "country":"Canada",
    "date":"2020-08-23T00:00:00.000Z",
    "population":75750184,
    "recovered":112836,
    "confirmed_daily":259,
    "deaths_daily":4,
    "recovered_daily":215
  },
  {
    "confirmed":127433,
    "deaths":9154,
    "country":"Canada",
    "date":"2020-08-24T00:00:00.000Z",
    "population":75750184,
    "recovered":113449,
    "confirmed_daily":753,
    "deaths_daily":8,
    "recovered_daily":613
  },
  {
    "confirmed":127778,
    "deaths":9159,
    "country":"Canada",
    "date":"2020-08-25T00:00:00.000Z",
    "population":75750184,
    "recovered":113809,
    "confirmed_daily":345,
    "deaths_daily":5,
    "recovered_daily":360
  },
  {
    "confirmed":128239,
    "deaths":9164,
    "country":"Canada",
    "date":"2020-08-26T00:00:00.000Z",
    "population":75750184,
    "recovered":114220,
    "confirmed_daily":461,
    "deaths_daily":5,
    "recovered_daily":411
  },
  {
    "confirmed":128706,
    "deaths":9168,
    "country":"Canada",
    "date":"2020-08-27T00:00:00.000Z",
    "population":75750184,
    "recovered":114610,
    "confirmed_daily":467,
    "deaths_daily":4,
    "recovered_daily":390
  },
  {
    "confirmed":129253,
    "deaths":9181,
    "country":"Canada",
    "date":"2020-08-28T00:00:00.000Z",
    "population":75750184,
    "recovered":115029,
    "confirmed_daily":547,
    "deaths_daily":13,
    "recovered_daily":419
  },
  {
    "confirmed":129582,
    "deaths":9184,
    "country":"Canada",
    "date":"2020-08-29T00:00:00.000Z",
    "population":75750184,
    "recovered":115294,
    "confirmed_daily":329,
    "deaths_daily":3,
    "recovered_daily":265
  },
  {
    "confirmed":129829,
    "deaths":9185,
    "country":"Canada",
    "date":"2020-08-30T00:00:00.000Z",
    "population":75750184,
    "recovered":115460,
    "confirmed_daily":247,
    "deaths_daily":1,
    "recovered_daily":166
  },
  {
    "confirmed":130849,
    "deaths":9193,
    "country":"Canada",
    "date":"2020-08-31T00:00:00.000Z",
    "population":75750184,
    "recovered":116020,
    "confirmed_daily":1020,
    "deaths_daily":8,
    "recovered_daily":560
  },
  {
    "confirmed":131385,
    "deaths":9197,
    "country":"Canada",
    "date":"2020-09-01T00:00:00.000Z",
    "population":75750184,
    "recovered":116432,
    "confirmed_daily":536,
    "deaths_daily":4,
    "recovered_daily":412
  },
  {
    "confirmed":131956,
    "deaths":9199,
    "country":"Canada",
    "date":"2020-09-02T00:00:00.000Z",
    "population":75750184,
    "recovered":116866,
    "confirmed_daily":571,
    "deaths_daily":2,
    "recovered_daily":434
  },
  {
    "confirmed":132582,
    "deaths":9205,
    "country":"Canada",
    "date":"2020-09-03T00:00:00.000Z",
    "population":75750184,
    "recovered":117277,
    "confirmed_daily":626,
    "deaths_daily":6,
    "recovered_daily":411
  },
  {
    "confirmed":133197,
    "deaths":9206,
    "country":"Canada",
    "date":"2020-09-04T00:00:00.000Z",
    "population":75750184,
    "recovered":117755,
    "confirmed_daily":615,
    "deaths_daily":1,
    "recovered_daily":478
  },
  {
    "confirmed":133587,
    "deaths":9207,
    "country":"Canada",
    "date":"2020-09-05T00:00:00.000Z",
    "population":75750184,
    "recovered":117968,
    "confirmed_daily":390,
    "deaths_daily":1,
    "recovered_daily":213
  },
  {
    "confirmed":133955,
    "deaths":9209,
    "country":"Canada",
    "date":"2020-09-06T00:00:00.000Z",
    "population":75750184,
    "recovered":118192,
    "confirmed_daily":368,
    "deaths_daily":2,
    "recovered_daily":224
  },
  {
    "confirmed":134335,
    "deaths":9212,
    "country":"Canada",
    "date":"2020-09-07T00:00:00.000Z",
    "population":75750184,
    "recovered":118386,
    "confirmed_daily":380,
    "deaths_daily":3,
    "recovered_daily":194
  },
  {
    "confirmed":135826,
    "deaths":9219,
    "country":"Canada",
    "date":"2020-09-08T00:00:00.000Z",
    "population":75750184,
    "recovered":119420,
    "confirmed_daily":1491,
    "deaths_daily":7,
    "recovered_daily":1034
  },
  {
    "confirmed":136276,
    "deaths":9223,
    "country":"Canada",
    "date":"2020-09-09T00:00:00.000Z",
    "population":75750184,
    "recovered":119789,
    "confirmed_daily":450,
    "deaths_daily":4,
    "recovered_daily":369
  },
  {
    "confirmed":137169,
    "deaths":9231,
    "country":"Canada",
    "date":"2020-09-10T00:00:00.000Z",
    "population":75750184,
    "recovered":120848,
    "confirmed_daily":893,
    "deaths_daily":8,
    "recovered_daily":1059
  },
  {
    "confirmed":137976,
    "deaths":9231,
    "country":"Canada",
    "date":"2020-09-11T00:00:00.000Z",
    "population":75750184,
    "recovered":121537,
    "confirmed_daily":807,
    "deaths_daily":0,
    "recovered_daily":689
  },
  {
    "confirmed":138515,
    "deaths":9233,
    "country":"Canada",
    "date":"2020-09-12T00:00:00.000Z",
    "population":75750184,
    "recovered":121944,
    "confirmed_daily":539,
    "deaths_daily":2,
    "recovered_daily":407
  },
  {
    "confirmed":139028,
    "deaths":9236,
    "country":"Canada",
    "date":"2020-09-13T00:00:00.000Z",
    "population":75750184,
    "recovered":122266,
    "confirmed_daily":513,
    "deaths_daily":3,
    "recovered_daily":322
  },
  {
    "confirmed":140487,
    "deaths":9249,
    "country":"Canada",
    "date":"2020-09-14T00:00:00.000Z",
    "population":75750184,
    "recovered":123120,
    "confirmed_daily":1459,
    "deaths_daily":13,
    "recovered_daily":854
  },
  {
    "confirmed":141318,
    "deaths":9257,
    "country":"Canada",
    "date":"2020-09-15T00:00:00.000Z",
    "population":75750184,
    "recovered":123777,
    "confirmed_daily":831,
    "deaths_daily":8,
    "recovered_daily":657
  },
  {
    "confirmed":142270,
    "deaths":9262,
    "country":"Canada",
    "date":"2020-09-16T00:00:00.000Z",
    "population":75750184,
    "recovered":124412,
    "confirmed_daily":952,
    "deaths_daily":5,
    "recovered_daily":635
  },
  {
    "confirmed":143149,
    "deaths":9267,
    "country":"Canada",
    "date":"2020-09-17T00:00:00.000Z",
    "population":75750184,
    "recovered":124984,
    "confirmed_daily":879,
    "deaths_daily":5,
    "recovered_daily":572
  },
  {
    "confirmed":144513,
    "deaths":9279,
    "country":"Canada",
    "date":"2020-09-18T00:00:00.000Z",
    "population":75750184,
    "recovered":125654,
    "confirmed_daily":1364,
    "deaths_daily":12,
    "recovered_daily":670
  },
  {
    "confirmed":145137,
    "deaths":9286,
    "country":"Canada",
    "date":"2020-09-19T00:00:00.000Z",
    "population":75750184,
    "recovered":125984,
    "confirmed_daily":624,
    "deaths_daily":7,
    "recovered_daily":330
  },
  {
    "confirmed":146321,
    "deaths":9288,
    "country":"Canada",
    "date":"2020-09-20T00:00:00.000Z",
    "population":75750184,
    "recovered":126592,
    "confirmed_daily":1184,
    "deaths_daily":2,
    "recovered_daily":608
  },
  {
    "confirmed":148046,
    "deaths":9300,
    "country":"Canada",
    "date":"2020-09-21T00:00:00.000Z",
    "population":75750184,
    "recovered":127684,
    "confirmed_daily":1725,
    "deaths_daily":12,
    "recovered_daily":1092
  },
  {
    "confirmed":149351,
    "deaths":9309,
    "country":"Canada",
    "date":"2020-09-22T00:00:00.000Z",
    "population":75750184,
    "recovered":128890,
    "confirmed_daily":1305,
    "deaths_daily":9,
    "recovered_daily":1206
  },
  {
    "confirmed":150652,
    "deaths":9317,
    "country":"Canada",
    "date":"2020-09-23T00:00:00.000Z",
    "population":75750184,
    "recovered":129850,
    "confirmed_daily":1301,
    "deaths_daily":8,
    "recovered_daily":960
  },
  {
    "confirmed":151944,
    "deaths":9325,
    "country":"Canada",
    "date":"2020-09-24T00:00:00.000Z",
    "population":75750184,
    "recovered":130576,
    "confirmed_daily":1292,
    "deaths_daily":8,
    "recovered_daily":726
  },
  {
    "confirmed":153680,
    "deaths":9332,
    "country":"Canada",
    "date":"2020-09-25T00:00:00.000Z",
    "population":75750184,
    "recovered":131709,
    "confirmed_daily":1736,
    "deaths_daily":7,
    "recovered_daily":1133
  },
  {
    "confirmed":154948,
    "deaths":9338,
    "country":"Canada",
    "date":"2020-09-26T00:00:00.000Z",
    "population":75750184,
    "recovered":132253,
    "confirmed_daily":1268,
    "deaths_daily":6,
    "recovered_daily":544
  },
  {
    "confirmed":156560,
    "deaths":9343,
    "country":"Canada",
    "date":"2020-09-27T00:00:00.000Z",
    "population":75750184,
    "recovered":133204,
    "confirmed_daily":1612,
    "deaths_daily":5,
    "recovered_daily":951
  },
  {
    "confirmed":158510,
    "deaths":9360,
    "country":"Canada",
    "date":"2020-09-28T00:00:00.000Z",
    "population":75750184,
    "recovered":134551,
    "confirmed_daily":1950,
    "deaths_daily":17,
    "recovered_daily":1347
  },
  {
    "confirmed":160441,
    "deaths":9373,
    "country":"Canada",
    "date":"2020-09-29T00:00:00.000Z",
    "population":75750184,
    "recovered":135765,
    "confirmed_daily":1931,
    "deaths_daily":13,
    "recovered_daily":1214
  },
  {
    "confirmed":162736,
    "deaths":9391,
    "country":"Canada",
    "date":"2020-09-30T00:00:00.000Z",
    "population":75750184,
    "recovered":137181,
    "confirmed_daily":2295,
    "deaths_daily":18,
    "recovered_daily":1416
  },
  {
    "confirmed":164583,
    "deaths":9407,
    "country":"Canada",
    "date":"2020-10-01T00:00:00.000Z",
    "population":75750184,
    "recovered":138548,
    "confirmed_daily":1847,
    "deaths_daily":16,
    "recovered_daily":1367
  },
  {
    "confirmed":166824,
    "deaths":9505,
    "country":"Canada",
    "date":"2020-10-02T00:00:00.000Z",
    "population":75750184,
    "recovered":139817,
    "confirmed_daily":2241,
    "deaths_daily":98,
    "recovered_daily":1269
  },
  {
    "confirmed":168178,
    "deaths":9526,
    "country":"Canada",
    "date":"2020-10-03T00:00:00.000Z",
    "population":75750184,
    "recovered":140711,
    "confirmed_daily":1354,
    "deaths_daily":21,
    "recovered_daily":894
  },
  {
    "confirmed":170289,
    "deaths":9570,
    "country":"Canada",
    "date":"2020-10-04T00:00:00.000Z",
    "population":75750184,
    "recovered":142502,
    "confirmed_daily":2111,
    "deaths_daily":44,
    "recovered_daily":1791
  },
  {
    "confirmed":172826,
    "deaths":9599,
    "country":"Canada",
    "date":"2020-10-05T00:00:00.000Z",
    "population":75750184,
    "recovered":144653,
    "confirmed_daily":2537,
    "deaths_daily":29,
    "recovered_daily":2151
  },
  {
    "confirmed":174835,
    "deaths":9617,
    "country":"Canada",
    "date":"2020-10-06T00:00:00.000Z",
    "population":75750184,
    "recovered":146429,
    "confirmed_daily":2009,
    "deaths_daily":18,
    "recovered_daily":1776
  },
  {
    "confirmed":176535,
    "deaths":9636,
    "country":"Canada",
    "date":"2020-10-07T00:00:00.000Z",
    "population":75750184,
    "recovered":147814,
    "confirmed_daily":1700,
    "deaths_daily":19,
    "recovered_daily":1385
  },
  {
    "confirmed":178904,
    "deaths":9654,
    "country":"Canada",
    "date":"2020-10-08T00:00:00.000Z",
    "population":75750184,
    "recovered":149692,
    "confirmed_daily":2369,
    "deaths_daily":18,
    "recovered_daily":1878
  },
  {
    "confirmed":181837,
    "deaths":9668,
    "country":"Canada",
    "date":"2020-10-09T00:00:00.000Z",
    "population":75750184,
    "recovered":152046,
    "confirmed_daily":2933,
    "deaths_daily":14,
    "recovered_daily":2354
  },
  {
    "confirmed":183792,
    "deaths":9694,
    "country":"Canada",
    "date":"2020-10-10T00:00:00.000Z",
    "population":75750184,
    "recovered":153857,
    "confirmed_daily":1955,
    "deaths_daily":26,
    "recovered_daily":1811
  },
  {
    "confirmed":185566,
    "deaths":9708,
    "country":"Canada",
    "date":"2020-10-11T00:00:00.000Z",
    "population":75750184,
    "recovered":155901,
    "confirmed_daily":1774,
    "deaths_daily":14,
    "recovered_daily":2044
  },
  {
    "confirmed":186494,
    "deaths":9720,
    "country":"Canada",
    "date":"2020-10-12T00:00:00.000Z",
    "population":75750184,
    "recovered":156940,
    "confirmed_daily":928,
    "deaths_daily":12,
    "recovered_daily":1039
  },
  {
    "confirmed":190739,
    "deaths":9752,
    "country":"Canada",
    "date":"2020-10-13T00:00:00.000Z",
    "population":75750184,
    "recovered":160223,
    "confirmed_daily":4245,
    "deaths_daily":32,
    "recovered_daily":3283
  },
  {
    "confirmed":193208,
    "deaths":9777,
    "country":"Canada",
    "date":"2020-10-14T00:00:00.000Z",
    "population":75750184,
    "recovered":162064,
    "confirmed_daily":2469,
    "deaths_daily":25,
    "recovered_daily":1841
  },
  {
    "confirmed":195684,
    "deaths":9796,
    "country":"Canada",
    "date":"2020-10-15T00:00:00.000Z",
    "population":75750184,
    "recovered":164154,
    "confirmed_daily":2476,
    "deaths_daily":19,
    "recovered_daily":2090
  },
  {
    "confirmed":198329,
    "deaths":9828,
    "country":"Canada",
    "date":"2020-10-16T00:00:00.000Z",
    "population":75750184,
    "recovered":166313,
    "confirmed_daily":2645,
    "deaths_daily":32,
    "recovered_daily":2159
  },
  {
    "confirmed":199523,
    "deaths":9836,
    "country":"Canada",
    "date":"2020-10-17T00:00:00.000Z",
    "population":75750184,
    "recovered":166444,
    "confirmed_daily":1194,
    "deaths_daily":8,
    "recovered_daily":131
  },
  {
    "confirmed":201861,
    "deaths":9860,
    "country":"Canada",
    "date":"2020-10-18T00:00:00.000Z",
    "population":75750184,
    "recovered":169751,
    "confirmed_daily":2338,
    "deaths_daily":24,
    "recovered_daily":3307
  },
  {
    "confirmed":204976,
    "deaths":9891,
    "country":"Canada",
    "date":"2020-10-19T00:00:00.000Z",
    "population":75750184,
    "recovered":172406,
    "confirmed_daily":3115,
    "deaths_daily":31,
    "recovered_daily":2655
  },
  {
    "confirmed":207465,
    "deaths":9909,
    "country":"Canada",
    "date":"2020-10-20T00:00:00.000Z",
    "population":75750184,
    "recovered":174514,
    "confirmed_daily":2489,
    "deaths_daily":18,
    "recovered_daily":2108
  },
  {
    "confirmed":210061,
    "deaths":9946,
    "country":"Canada",
    "date":"2020-10-21T00:00:00.000Z",
    "population":75750184,
    "recovered":171405,
    "confirmed_daily":2596,
    "deaths_daily":37,
    "recovered_daily":-3109
  },
  {
    "confirmed":212541,
    "deaths":9977,
    "country":"Canada",
    "date":"2020-10-22T00:00:00.000Z",
    "population":75750184,
    "recovered":173299,
    "confirmed_daily":2480,
    "deaths_daily":31,
    "recovered_daily":1894
  },
  {
    "confirmed":215574,
    "deaths":10004,
    "country":"Canada",
    "date":"2020-10-23T00:00:00.000Z",
    "population":75750184,
    "recovered":180626,
    "confirmed_daily":3033,
    "deaths_daily":27,
    "recovered_daily":7327
  },
  {
    "confirmed":216935,
    "deaths":10026,
    "country":"Canada",
    "date":"2020-10-24T00:00:00.000Z",
    "population":75750184,
    "recovered":181974,
    "confirmed_daily":1361,
    "deaths_daily":22,
    "recovered_daily":1348
  },
  {
    "confirmed":219704,
    "deaths":10057,
    "country":"Canada",
    "date":"2020-10-25T00:00:00.000Z",
    "population":75750184,
    "recovered":184194,
    "confirmed_daily":2769,
    "deaths_daily":31,
    "recovered_daily":2220
  },
  {
    "confirmed":223984,
    "deaths":10095,
    "country":"Canada",
    "date":"2020-10-26T00:00:00.000Z",
    "population":75750184,
    "recovered":187100,
    "confirmed_daily":4280,
    "deaths_daily":38,
    "recovered_daily":2906
  },
  {
    "confirmed":226721,
    "deaths":10120,
    "country":"Canada",
    "date":"2020-10-27T00:00:00.000Z",
    "population":75750184,
    "recovered":189350,
    "confirmed_daily":2737,
    "deaths_daily":25,
    "recovered_daily":2250
  },
  {
    "confirmed":229446,
    "deaths":10158,
    "country":"Canada",
    "date":"2020-10-28T00:00:00.000Z",
    "population":75750184,
    "recovered":191723,
    "confirmed_daily":2725,
    "deaths_daily":38,
    "recovered_daily":2373
  },
  {
    "confirmed":232497,
    "deaths":10192,
    "country":"Canada",
    "date":"2020-10-29T00:00:00.000Z",
    "population":75750184,
    "recovered":194105,
    "confirmed_daily":3051,
    "deaths_daily":34,
    "recovered_daily":2382
  },
  {
    "confirmed":235898,
    "deaths":10237,
    "country":"Canada",
    "date":"2020-10-30T00:00:00.000Z",
    "population":75750184,
    "recovered":196935,
    "confirmed_daily":3401,
    "deaths_daily":45,
    "recovered_daily":2830
  },
  {
    "confirmed":238191,
    "deaths":10276,
    "country":"Canada",
    "date":"2020-10-31T00:00:00.000Z",
    "population":75750184,
    "recovered":198952,
    "confirmed_daily":2293,
    "deaths_daily":39,
    "recovered_daily":2017
  },
  {
    "confirmed":240586,
    "deaths":10313,
    "country":"Canada",
    "date":"2020-11-01T00:00:00.000Z",
    "population":75750184,
    "recovered":200768,
    "confirmed_daily":2395,
    "deaths_daily":37,
    "recovered_daily":1816
  },
  {
    "confirmed":243974,
    "deaths":10345,
    "country":"Canada",
    "date":"2020-11-02T00:00:00.000Z",
    "population":75750184,
    "recovered":203128,
    "confirmed_daily":3388,
    "deaths_daily":32,
    "recovered_daily":2360
  },
  {
    "confirmed":248905,
    "deaths":10403,
    "country":"Canada",
    "date":"2020-11-03T00:00:00.000Z",
    "population":75750184,
    "recovered":206691,
    "confirmed_daily":4931,
    "deaths_daily":58,
    "recovered_daily":3563
  },
  {
    "confirmed":251822,
    "deaths":10444,
    "country":"Canada",
    "date":"2020-11-04T00:00:00.000Z",
    "population":75750184,
    "recovered":208815,
    "confirmed_daily":2917,
    "deaths_daily":41,
    "recovered_daily":2124
  },
  {
    "confirmed":254739,
    "deaths":10484,
    "country":"Canada",
    "date":"2020-11-05T00:00:00.000Z",
    "population":75750184,
    "recovered":210429,
    "confirmed_daily":2917,
    "deaths_daily":40,
    "recovered_daily":1614
  },
  {
    "confirmed":260195,
    "deaths":10546,
    "country":"Canada",
    "date":"2020-11-06T00:00:00.000Z",
    "population":75750184,
    "recovered":214441,
    "confirmed_daily":5456,
    "deaths_daily":62,
    "recovered_daily":4012
  },
  {
    "confirmed":264545,
    "deaths":10593,
    "country":"Canada",
    "date":"2020-11-07T00:00:00.000Z",
    "population":75750184,
    "recovered":216338,
    "confirmed_daily":4350,
    "deaths_daily":47,
    "recovered_daily":1897
  },
  {
    "confirmed":268395,
    "deaths":10641,
    "country":"Canada",
    "date":"2020-11-08T00:00:00.000Z",
    "population":75750184,
    "recovered":218279,
    "confirmed_daily":3850,
    "deaths_daily":48,
    "recovered_daily":1941
  },
  {
    "confirmed":273304,
    "deaths":10702,
    "country":"Canada",
    "date":"2020-11-09T00:00:00.000Z",
    "population":75750184,
    "recovered":221758,
    "confirmed_daily":4909,
    "deaths_daily":61,
    "recovered_daily":3479
  },
  {
    "confirmed":277892,
    "deaths":10769,
    "country":"Canada",
    "date":"2020-11-10T00:00:00.000Z",
    "population":75750184,
    "recovered":224912,
    "confirmed_daily":4588,
    "deaths_daily":67,
    "recovered_daily":3154
  },
  {
    "confirmed":281888,
    "deaths":10832,
    "country":"Canada",
    "date":"2020-11-11T00:00:00.000Z",
    "population":75750184,
    "recovered":226826,
    "confirmed_daily":3996,
    "deaths_daily":63,
    "recovered_daily":1914
  },
  {
    "confirmed":287329,
    "deaths":10905,
    "country":"Canada",
    "date":"2020-11-12T00:00:00.000Z",
    "population":75750184,
    "recovered":230429,
    "confirmed_daily":5441,
    "deaths_daily":73,
    "recovered_daily":3603
  },
  {
    "confirmed":292173,
    "deaths":10951,
    "country":"Canada",
    "date":"2020-11-13T00:00:00.000Z",
    "population":75750184,
    "recovered":234404,
    "confirmed_daily":4844,
    "deaths_daily":46,
    "recovered_daily":3975
  },
  {
    "confirmed":296394,
    "deaths":11013,
    "country":"Canada",
    "date":"2020-11-14T00:00:00.000Z",
    "population":75750184,
    "recovered":236870,
    "confirmed_daily":4221,
    "deaths_daily":62,
    "recovered_daily":2466
  },
  {
    "confirmed":300597,
    "deaths":11078,
    "country":"Canada",
    "date":"2020-11-15T00:00:00.000Z",
    "population":75750184,
    "recovered":240434,
    "confirmed_daily":4203,
    "deaths_daily":65,
    "recovered_daily":3564
  },
  {
    "confirmed":306437,
    "deaths":11152,
    "country":"Canada",
    "date":"2020-11-16T00:00:00.000Z",
    "population":75750184,
    "recovered":244699,
    "confirmed_daily":5840,
    "deaths_daily":74,
    "recovered_daily":4265
  },
  {
    "confirmed":311043,
    "deaths":11220,
    "country":"Canada",
    "date":"2020-11-17T00:00:00.000Z",
    "population":75750184,
    "recovered":248859,
    "confirmed_daily":4606,
    "deaths_daily":68,
    "recovered_daily":4160
  },
  {
    "confirmed":315586,
    "deaths":11324,
    "country":"Canada",
    "date":"2020-11-18T00:00:00.000Z",
    "population":75750184,
    "recovered":253089,
    "confirmed_daily":4543,
    "deaths_daily":104,
    "recovered_daily":4230
  },
  {
    "confirmed":320481,
    "deaths":11394,
    "country":"Canada",
    "date":"2020-11-19T00:00:00.000Z",
    "population":75750184,
    "recovered":257310,
    "confirmed_daily":4895,
    "deaths_daily":70,
    "recovered_daily":4221
  },
  {
    "confirmed":325356,
    "deaths":11461,
    "country":"Canada",
    "date":"2020-11-20T00:00:00.000Z",
    "population":75750184,
    "recovered":261754,
    "confirmed_daily":4875,
    "deaths_daily":67,
    "recovered_daily":4444
  },
  {
    "confirmed":330240,
    "deaths":11527,
    "country":"Canada",
    "date":"2020-11-21T00:00:00.000Z",
    "population":75750184,
    "recovered":265568,
    "confirmed_daily":4884,
    "deaths_daily":66,
    "recovered_daily":3814
  },
  {
    "confirmed":335038,
    "deaths":11583,
    "country":"Canada",
    "date":"2020-11-22T00:00:00.000Z",
    "population":75750184,
    "recovered":269137,
    "confirmed_daily":4798,
    "deaths_daily":56,
    "recovered_daily":3569
  },
  {
    "confirmed":341746,
    "deaths":11662,
    "country":"Canada",
    "date":"2020-11-23T00:00:00.000Z",
    "population":75750184,
    "recovered":274315,
    "confirmed_daily":6708,
    "deaths_daily":79,
    "recovered_daily":5178
  },
  {
    "confirmed":347135,
    "deaths":11762,
    "country":"Canada",
    "date":"2020-11-24T00:00:00.000Z",
    "population":75750184,
    "recovered":278191,
    "confirmed_daily":5389,
    "deaths_daily":100,
    "recovered_daily":3876
  },
  {
    "confirmed":352376,
    "deaths":11820,
    "country":"Canada",
    "date":"2020-11-25T00:00:00.000Z",
    "population":75750184,
    "recovered":281883,
    "confirmed_daily":5241,
    "deaths_daily":58,
    "recovered_daily":3692
  },
  {
    "confirmed":357926,
    "deaths":11902,
    "country":"Canada",
    "date":"2020-11-26T00:00:00.000Z",
    "population":75750184,
    "recovered":285672,
    "confirmed_daily":5550,
    "deaths_daily":82,
    "recovered_daily":3789
  },
  {
    "confirmed":363884,
    "deaths":11988,
    "country":"Canada",
    "date":"2020-11-27T00:00:00.000Z",
    "population":75750184,
    "recovered":291221,
    "confirmed_daily":5958,
    "deaths_daily":86,
    "recovered_daily":5549
  },
  {
    "confirmed":369510,
    "deaths":12056,
    "country":"Canada",
    "date":"2020-11-28T00:00:00.000Z",
    "population":75750184,
    "recovered":295475,
    "confirmed_daily":5626,
    "deaths_daily":68,
    "recovered_daily":4254
  },
  {
    "confirmed":374880,
    "deaths":12130,
    "country":"Canada",
    "date":"2020-11-29T00:00:00.000Z",
    "population":75750184,
    "recovered":299095,
    "confirmed_daily":5370,
    "deaths_daily":74,
    "recovered_daily":3620
  },
  {
    "confirmed":382708,
    "deaths":12239,
    "country":"Canada",
    "date":"2020-11-30T00:00:00.000Z",
    "population":75750184,
    "recovered":304595,
    "confirmed_daily":7828,
    "deaths_daily":109,
    "recovered_daily":5500
  },
  {
    "confirmed":388543,
    "deaths":12317,
    "country":"Canada",
    "date":"2020-12-01T00:00:00.000Z",
    "population":75750184,
    "recovered":309557,
    "confirmed_daily":5835,
    "deaths_daily":78,
    "recovered_daily":4962
  },
  {
    "confirmed":395028,
    "deaths":12423,
    "country":"Canada",
    "date":"2020-12-02T00:00:00.000Z",
    "population":75750184,
    "recovered":314529,
    "confirmed_daily":6485,
    "deaths_daily":106,
    "recovered_daily":4972
  },
  {
    "confirmed":401325,
    "deaths":12513,
    "country":"Canada",
    "date":"2020-12-03T00:00:00.000Z",
    "population":75750184,
    "recovered":319250,
    "confirmed_daily":6297,
    "deaths_daily":90,
    "recovered_daily":4721
  },
  {
    "confirmed":408165,
    "deaths":12616,
    "country":"Canada",
    "date":"2020-12-04T00:00:00.000Z",
    "population":75750184,
    "recovered":324802,
    "confirmed_daily":6840,
    "deaths_daily":103,
    "recovered_daily":5552
  },
  {
    "confirmed":414131,
    "deaths":12690,
    "country":"Canada",
    "date":"2020-12-05T00:00:00.000Z",
    "population":75750184,
    "recovered":329676,
    "confirmed_daily":5966,
    "deaths_daily":74,
    "recovered_daily":4874
  },
  {
    "confirmed":420281,
    "deaths":12775,
    "country":"Canada",
    "date":"2020-12-06T00:00:00.000Z",
    "population":75750184,
    "recovered":334375,
    "confirmed_daily":6150,
    "deaths_daily":85,
    "recovered_daily":4699
  },
  {
    "confirmed":428054,
    "deaths":12896,
    "country":"Canada",
    "date":"2020-12-07T00:00:00.000Z",
    "population":75750184,
    "recovered":344034,
    "confirmed_daily":7773,
    "deaths_daily":121,
    "recovered_daily":9659
  },
  {
    "confirmed":434320,
    "deaths":12993,
    "country":"Canada",
    "date":"2020-12-08T00:00:00.000Z",
    "population":75750184,
    "recovered":349629,
    "confirmed_daily":6266,
    "deaths_daily":97,
    "recovered_daily":5595
  },
  {
    "confirmed":440737,
    "deaths":13109,
    "country":"Canada",
    "date":"2020-12-09T00:00:00.000Z",
    "population":75750184,
    "recovered":355401,
    "confirmed_daily":6417,
    "deaths_daily":116,
    "recovered_daily":5772
  },
  {
    "confirmed":447341,
    "deaths":13227,
    "country":"Canada",
    "date":"2020-12-10T00:00:00.000Z",
    "population":75750184,
    "recovered":361020,
    "confirmed_daily":6604,
    "deaths_daily":118,
    "recovered_daily":5619
  },
  {
    "confirmed":454254,
    "deaths":13355,
    "country":"Canada",
    "date":"2020-12-11T00:00:00.000Z",
    "population":75750184,
    "recovered":367837,
    "confirmed_daily":6913,
    "deaths_daily":128,
    "recovered_daily":6817
  },
  {
    "confirmed":460332,
    "deaths":13453,
    "country":"Canada",
    "date":"2020-12-12T00:00:00.000Z",
    "population":75750184,
    "recovered":373898,
    "confirmed_daily":6078,
    "deaths_daily":98,
    "recovered_daily":6061
  },
  {
    "confirmed":466016,
    "deaths":13537,
    "country":"Canada",
    "date":"2020-12-13T00:00:00.000Z",
    "population":75750184,
    "recovered":378653,
    "confirmed_daily":5684,
    "deaths_daily":84,
    "recovered_daily":4755
  },
  {
    "confirmed":474661,
    "deaths":13677,
    "country":"Canada",
    "date":"2020-12-14T00:00:00.000Z",
    "population":75750184,
    "recovered":385021,
    "confirmed_daily":8645,
    "deaths_daily":140,
    "recovered_daily":6368
  },
  {
    "confirmed":480952,
    "deaths":13793,
    "country":"Canada",
    "date":"2020-12-15T00:00:00.000Z",
    "population":75750184,
    "recovered":391435,
    "confirmed_daily":6291,
    "deaths_daily":116,
    "recovered_daily":6414
  },
  {
    "confirmed":487685,
    "deaths":13911,
    "country":"Canada",
    "date":"2020-12-16T00:00:00.000Z",
    "population":75750184,
    "recovered":397217,
    "confirmed_daily":6733,
    "deaths_daily":118,
    "recovered_daily":5782
  },
  {
    "confirmed":495152,
    "deaths":14067,
    "country":"Canada",
    "date":"2020-12-17T00:00:00.000Z",
    "population":75750184,
    "recovered":403667,
    "confirmed_daily":7467,
    "deaths_daily":156,
    "recovered_daily":6450
  },
  {
    "confirmed":502197,
    "deaths":14180,
    "country":"Canada",
    "date":"2020-12-18T00:00:00.000Z",
    "population":75750184,
    "recovered":410988,
    "confirmed_daily":7045,
    "deaths_daily":113,
    "recovered_daily":7321
  },
  {
    "confirmed":508674,
    "deaths":14284,
    "country":"Canada",
    "date":"2020-12-19T00:00:00.000Z",
    "population":75750184,
    "recovered":416901,
    "confirmed_daily":6477,
    "deaths_daily":104,
    "recovered_daily":5913
  },
  {
    "confirmed":514500,
    "deaths":14374,
    "country":"Canada",
    "date":"2020-12-20T00:00:00.000Z",
    "population":75750184,
    "recovered":422175,
    "confirmed_daily":5826,
    "deaths_daily":90,
    "recovered_daily":5274
  },
  {
    "confirmed":522076,
    "deaths":14481,
    "country":"Canada",
    "date":"2020-12-21T00:00:00.000Z",
    "population":75750184,
    "recovered":429372,
    "confirmed_daily":7576,
    "deaths_daily":107,
    "recovered_daily":7197
  },
  {
    "confirmed":528307,
    "deaths":14607,
    "country":"Canada",
    "date":"2020-12-22T00:00:00.000Z",
    "population":75750184,
    "recovered":437458,
    "confirmed_daily":6231,
    "deaths_daily":126,
    "recovered_daily":8086
  },
  {
    "confirmed":535204,
    "deaths":14752,
    "country":"Canada",
    "date":"2020-12-23T00:00:00.000Z",
    "population":75750184,
    "recovered":444166,
    "confirmed_daily":6897,
    "deaths_daily":145,
    "recovered_daily":6708
  },
  {
    "confirmed":541936,
    "deaths":14902,
    "country":"Canada",
    "date":"2020-12-24T00:00:00.000Z",
    "population":75750184,
    "recovered":448119,
    "confirmed_daily":6732,
    "deaths_daily":150,
    "recovered_daily":3953
  },
  {
    "confirmed":545983,
    "deaths":14966,
    "country":"Canada",
    "date":"2020-12-25T00:00:00.000Z",
    "population":75750184,
    "recovered":448829,
    "confirmed_daily":4047,
    "deaths_daily":64,
    "recovered_daily":710
  },
  {
    "confirmed":551184,
    "deaths":15051,
    "country":"Canada",
    "date":"2020-12-26T00:00:00.000Z",
    "population":75750184,
    "recovered":450669,
    "confirmed_daily":5201,
    "deaths_daily":85,
    "recovered_daily":1840
  },
  {
    "confirmed":556649,
    "deaths":15171,
    "country":"Canada",
    "date":"2020-12-27T00:00:00.000Z",
    "population":75750184,
    "recovered":461134,
    "confirmed_daily":5465,
    "deaths_daily":120,
    "recovered_daily":10465
  },
  {
    "confirmed":563156,
    "deaths":15328,
    "country":"Canada",
    "date":"2020-12-28T00:00:00.000Z",
    "population":75750184,
    "recovered":473200,
    "confirmed_daily":6507,
    "deaths_daily":157,
    "recovered_daily":12066
  },
  {
    "confirmed":571823,
    "deaths":15528,
    "country":"Canada",
    "date":"2020-12-29T00:00:00.000Z",
    "population":75750184,
    "recovered":482944,
    "confirmed_daily":8667,
    "deaths_daily":200,
    "recovered_daily":9744
  },
  {
    "confirmed":580573,
    "deaths":15650,
    "country":"Canada",
    "date":"2020-12-30T00:00:00.000Z",
    "population":75750184,
    "recovered":490229,
    "confirmed_daily":8750,
    "deaths_daily":122,
    "recovered_daily":7285
  },
  {
    "confirmed":587429,
    "deaths":15762,
    "country":"Canada",
    "date":"2020-12-31T00:00:00.000Z",
    "population":75750184,
    "recovered":493638,
    "confirmed_daily":6856,
    "deaths_daily":112,
    "recovered_daily":3409
  },
  {
    "confirmed":591149,
    "deaths":15806,
    "country":"Canada",
    "date":"2021-01-01T00:00:00.000Z",
    "population":75750184,
    "recovered":494437,
    "confirmed_daily":3720,
    "deaths_daily":44,
    "recovered_daily":799
  },
  {
    "confirmed":598091,
    "deaths":15914,
    "country":"Canada",
    "date":"2021-01-02T00:00:00.000Z",
    "population":75750184,
    "recovered":497492,
    "confirmed_daily":6942,
    "deaths_daily":108,
    "recovered_daily":3055
  },
  {
    "confirmed":608734,
    "deaths":16006,
    "country":"Canada",
    "date":"2021-01-03T00:00:00.000Z",
    "population":75750184,
    "recovered":510595,
    "confirmed_daily":10643,
    "deaths_daily":92,
    "recovered_daily":13103
  },
  {
    "confirmed":618801,
    "deaths":16247,
    "country":"Canada",
    "date":"2021-01-04T00:00:00.000Z",
    "population":75750184,
    "recovered":523448,
    "confirmed_daily":10067,
    "deaths_daily":241,
    "recovered_daily":12853
  },
  {
    "confirmed":626129,
    "deaths":16389,
    "country":"Canada",
    "date":"2021-01-05T00:00:00.000Z",
    "population":75750184,
    "recovered":529580,
    "confirmed_daily":7328,
    "deaths_daily":142,
    "recovered_daily":6132
  },
  {
    "confirmed":634437,
    "deaths":16539,
    "country":"Canada",
    "date":"2021-01-06T00:00:00.000Z",
    "population":75750184,
    "recovered":537024,
    "confirmed_daily":8308,
    "deaths_daily":150,
    "recovered_daily":7444
  },
  {
    "confirmed":642978,
    "deaths":16704,
    "country":"Canada",
    "date":"2021-01-07T00:00:00.000Z",
    "population":75750184,
    "recovered":544047,
    "confirmed_daily":8541,
    "deaths_daily":165,
    "recovered_daily":7023
  },
  {
    "confirmed":652373,
    "deaths":16846,
    "country":"Canada",
    "date":"2021-01-08T00:00:00.000Z",
    "population":75750184,
    "recovered":551983,
    "confirmed_daily":9395,
    "deaths_daily":142,
    "recovered_daily":7936
  },
  {
    "confirmed":659647,
    "deaths":16984,
    "country":"Canada",
    "date":"2021-01-09T00:00:00.000Z",
    "population":75750184,
    "recovered":558594,
    "confirmed_daily":7274,
    "deaths_daily":138,
    "recovered_daily":6611
  },
  {
    "confirmed":666375,
    "deaths":17074,
    "country":"Canada",
    "date":"2021-01-10T00:00:00.000Z",
    "population":75750184,
    "recovered":565049,
    "confirmed_daily":6728,
    "deaths_daily":90,
    "recovered_daily":6455
  },
  {
    "confirmed":674624,
    "deaths":17199,
    "country":"Canada",
    "date":"2021-01-11T00:00:00.000Z",
    "population":75750184,
    "recovered":575152,
    "confirmed_daily":8249,
    "deaths_daily":125,
    "recovered_daily":10103
  },
  {
    "confirmed":681015,
    "deaths":17359,
    "country":"Canada",
    "date":"2021-01-12T00:00:00.000Z",
    "population":75750184,
    "recovered":582822,
    "confirmed_daily":6391,
    "deaths_daily":160,
    "recovered_daily":7670
  },
  {
    "confirmed":688097,
    "deaths":17539,
    "country":"Canada",
    "date":"2021-01-13T00:00:00.000Z",
    "population":75750184,
    "recovered":591131,
    "confirmed_daily":7082,
    "deaths_daily":180,
    "recovered_daily":8309
  },
  {
    "confirmed":695359,
    "deaths":17686,
    "country":"Canada",
    "date":"2021-01-14T00:00:00.000Z",
    "population":75750184,
    "recovered":599753,
    "confirmed_daily":7262,
    "deaths_daily":147,
    "recovered_daily":8622
  },
  {
    "confirmed":702203,
    "deaths":17856,
    "country":"Canada",
    "date":"2021-01-15T00:00:00.000Z",
    "population":75750184,
    "recovered":608322,
    "confirmed_daily":6844,
    "deaths_daily":170,
    "recovered_daily":8569
  },
  {
    "confirmed":708263,
    "deaths":17978,
    "country":"Canada",
    "date":"2021-01-16T00:00:00.000Z",
    "population":75750184,
    "recovered":614692,
    "confirmed_daily":6060,
    "deaths_daily":122,
    "recovered_daily":6370
  },
  {
    "confirmed":714316,
    "deaths":18106,
    "country":"Canada",
    "date":"2021-01-17T00:00:00.000Z",
    "population":75750184,
    "recovered":621857,
    "confirmed_daily":6053,
    "deaths_daily":128,
    "recovered_daily":7165
  },
  {
    "confirmed":720440,
    "deaths":18231,
    "country":"Canada",
    "date":"2021-01-18T00:00:00.000Z",
    "population":75750184,
    "recovered":629547,
    "confirmed_daily":6124,
    "deaths_daily":125,
    "recovered_daily":7690
  },
  {
    "confirmed":725599,
    "deaths":18382,
    "country":"Canada",
    "date":"2021-01-19T00:00:00.000Z",
    "population":75750184,
    "recovered":637132,
    "confirmed_daily":5159,
    "deaths_daily":151,
    "recovered_daily":7585
  },
  {
    "confirmed":731371,
    "deaths":18567,
    "country":"Canada",
    "date":"2021-01-20T00:00:00.000Z",
    "population":75750184,
    "recovered":644967,
    "confirmed_daily":5772,
    "deaths_daily":185,
    "recovered_daily":7835
  },
  {
    "confirmed":737654,
    "deaths":18706,
    "country":"Canada",
    "date":"2021-01-21T00:00:00.000Z",
    "population":75750184,
    "recovered":652246,
    "confirmed_daily":6283,
    "deaths_daily":139,
    "recovered_daily":7279
  },
  {
    "confirmed":743384,
    "deaths":18887,
    "country":"Canada",
    "date":"2021-01-22T00:00:00.000Z",
    "population":75750184,
    "recovered":659185,
    "confirmed_daily":5730,
    "deaths_daily":181,
    "recovered_daily":6939
  },
  {
    "confirmed":748123,
    "deaths":18992,
    "country":"Canada",
    "date":"2021-01-23T00:00:00.000Z",
    "population":75750184,
    "recovered":663552,
    "confirmed_daily":4739,
    "deaths_daily":105,
    "recovered_daily":4367
  },
  {
    "confirmed":752510,
    "deaths":19119,
    "country":"Canada",
    "date":"2021-01-24T00:00:00.000Z",
    "population":75750184,
    "recovered":670938,
    "confirmed_daily":4387,
    "deaths_daily":127,
    "recovered_daily":7386
  },
  {
    "confirmed":758142,
    "deaths":19245,
    "country":"Canada",
    "date":"2021-01-25T00:00:00.000Z",
    "population":75750184,
    "recovered":677636,
    "confirmed_daily":5632,
    "deaths_daily":126,
    "recovered_daily":6698
  },
  {
    "confirmed":762368,
    "deaths":19392,
    "country":"Canada",
    "date":"2021-01-26T00:00:00.000Z",
    "population":75750184,
    "recovered":684817,
    "confirmed_daily":4226,
    "deaths_daily":147,
    "recovered_daily":7181
  },
  {
    "confirmed":766633,
    "deaths":19485,
    "country":"Canada",
    "date":"2021-01-27T00:00:00.000Z",
    "population":75750184,
    "recovered":690369,
    "confirmed_daily":4265,
    "deaths_daily":93,
    "recovered_daily":5552
  },
  {
    "confirmed":771358,
    "deaths":19676,
    "country":"Canada",
    "date":"2021-01-28T00:00:00.000Z",
    "population":75750184,
    "recovered":695578,
    "confirmed_daily":4725,
    "deaths_daily":191,
    "recovered_daily":5209
  },
  {
    "confirmed":776171,
    "deaths":19825,
    "country":"Canada",
    "date":"2021-01-29T00:00:00.000Z",
    "population":75750184,
    "recovered":701306,
    "confirmed_daily":4813,
    "deaths_daily":149,
    "recovered_daily":5728
  },
  {
    "confirmed":780147,
    "deaths":19958,
    "country":"Canada",
    "date":"2021-01-30T00:00:00.000Z",
    "population":75750184,
    "recovered":706285,
    "confirmed_daily":3976,
    "deaths_daily":133,
    "recovered_daily":4979
  },
  {
    "confirmed":783735,
    "deaths":20041,
    "country":"Canada",
    "date":"2021-01-31T00:00:00.000Z",
    "population":75750184,
    "recovered":710699,
    "confirmed_daily":3588,
    "deaths_daily":83,
    "recovered_daily":4414
  },
  {
    "confirmed":788323,
    "deaths":20145,
    "country":"Canada",
    "date":"2021-02-01T00:00:00.000Z",
    "population":75750184,
    "recovered":718049,
    "confirmed_daily":4588,
    "deaths_daily":104,
    "recovered_daily":7350
  },
  {
    "confirmed":791385,
    "deaths":20242,
    "country":"Canada",
    "date":"2021-02-02T00:00:00.000Z",
    "population":75750184,
    "recovered":722002,
    "confirmed_daily":3062,
    "deaths_daily":97,
    "recovered_daily":3953
  },
  {
    "confirmed":794681,
    "deaths":20361,
    "country":"Canada",
    "date":"2021-02-03T00:00:00.000Z",
    "population":75750184,
    "recovered":726258,
    "confirmed_daily":3296,
    "deaths_daily":119,
    "recovered_daily":4256
  },
  {
    "confirmed":798650,
    "deaths":20486,
    "country":"Canada",
    "date":"2021-02-04T00:00:00.000Z",
    "population":75750184,
    "recovered":729768,
    "confirmed_daily":3969,
    "deaths_daily":125,
    "recovered_daily":3510
  },
  {
    "confirmed":802904,
    "deaths":20607,
    "country":"Canada",
    "date":"2021-02-05T00:00:00.000Z",
    "population":75750184,
    "recovered":726095,
    "confirmed_daily":4254,
    "deaths_daily":121,
    "recovered_daily":-3673
  },
  {
    "confirmed":806010,
    "deaths":20700,
    "country":"Canada",
    "date":"2021-02-06T00:00:00.000Z",
    "population":75750184,
    "recovered":729371,
    "confirmed_daily":3106,
    "deaths_daily":93,
    "recovered_daily":3276
  },
  {
    "confirmed":808973,
    "deaths":20760,
    "country":"Canada",
    "date":"2021-02-07T00:00:00.000Z",
    "population":75750184,
    "recovered":732688,
    "confirmed_daily":2963,
    "deaths_daily":60,
    "recovered_daily":3317
  },
  {
    "confirmed":812700,
    "deaths":20830,
    "country":"Canada",
    "date":"2021-02-08T00:00:00.000Z",
    "population":75750184,
    "recovered":752390,
    "confirmed_daily":3727,
    "deaths_daily":70,
    "recovered_daily":19702
  },
  {
    "confirmed":815526,
    "deaths":20914,
    "country":"Canada",
    "date":"2021-02-09T00:00:00.000Z",
    "population":75750184,
    "recovered":756588,
    "confirmed_daily":2826,
    "deaths_daily":84,
    "recovered_daily":4198
  },
  {
    "confirmed":818967,
    "deaths":21007,
    "country":"Canada",
    "date":"2021-02-10T00:00:00.000Z",
    "population":75750184,
    "recovered":760476,
    "confirmed_daily":3441,
    "deaths_daily":93,
    "recovered_daily":3888
  },
  {
    "confirmed":822038,
    "deaths":21089,
    "country":"Canada",
    "date":"2021-02-11T00:00:00.000Z",
    "population":75750184,
    "recovered":763979,
    "confirmed_daily":3071,
    "deaths_daily":82,
    "recovered_daily":3503
  },
  {
    "confirmed":824754,
    "deaths":21168,
    "country":"Canada",
    "date":"2021-02-12T00:00:00.000Z",
    "population":75750184,
    "recovered":767170,
    "confirmed_daily":2716,
    "deaths_daily":79,
    "recovered_daily":3191
  },
  {
    "confirmed":828335,
    "deaths":21238,
    "country":"Canada",
    "date":"2021-02-13T00:00:00.000Z",
    "population":75750184,
    "recovered":769007,
    "confirmed_daily":3581,
    "deaths_daily":70,
    "recovered_daily":1837
  },
  {
    "confirmed":830352,
    "deaths":21261,
    "country":"Canada",
    "date":"2021-02-14T00:00:00.000Z",
    "population":75750184,
    "recovered":771956,
    "confirmed_daily":2017,
    "deaths_daily":23,
    "recovered_daily":2949
  },
  {
    "confirmed":832058,
    "deaths":21298,
    "country":"Canada",
    "date":"2021-02-15T00:00:00.000Z",
    "population":75750184,
    "recovered":774703,
    "confirmed_daily":1706,
    "deaths_daily":37,
    "recovered_daily":2747
  },
  {
    "confirmed":836455,
    "deaths":21395,
    "country":"Canada",
    "date":"2021-02-16T00:00:00.000Z",
    "population":75750184,
    "recovered":782150,
    "confirmed_daily":4397,
    "deaths_daily":97,
    "recovered_daily":7447
  },
  {
    "confirmed":838998,
    "deaths":21439,
    "country":"Canada",
    "date":"2021-02-17T00:00:00.000Z",
    "population":75750184,
    "recovered":785508,
    "confirmed_daily":2543,
    "deaths_daily":44,
    "recovered_daily":3358
  },
  {
    "confirmed":842393,
    "deaths":21509,
    "country":"Canada",
    "date":"2021-02-18T00:00:00.000Z",
    "population":75750184,
    "recovered":789108,
    "confirmed_daily":3395,
    "deaths_daily":70,
    "recovered_daily":3600
  },
  {
    "confirmed":845454,
    "deaths":21581,
    "country":"Canada",
    "date":"2021-02-19T00:00:00.000Z",
    "population":75750184,
    "recovered":792455,
    "confirmed_daily":3061,
    "deaths_daily":72,
    "recovered_daily":3347
  },
  {
    "confirmed":848060,
    "deaths":21631,
    "country":"Canada",
    "date":"2021-02-20T00:00:00.000Z",
    "population":75750184,
    "recovered":795451,
    "confirmed_daily":2606,
    "deaths_daily":50,
    "recovered_daily":2996
  },
  {
    "confirmed":850617,
    "deaths":21675,
    "country":"Canada",
    "date":"2021-02-21T00:00:00.000Z",
    "population":75750184,
    "recovered":798129,
    "confirmed_daily":2557,
    "deaths_daily":44,
    "recovered_daily":2678
  },
  {
    "confirmed":853901,
    "deaths":21724,
    "country":"Canada",
    "date":"2021-02-22T00:00:00.000Z",
    "population":75750184,
    "recovered":801678,
    "confirmed_daily":3284,
    "deaths_daily":49,
    "recovered_daily":3549
  },
  {
    "confirmed":857206,
    "deaths":21763,
    "country":"Canada",
    "date":"2021-02-23T00:00:00.000Z",
    "population":75750184,
    "recovered":805428,
    "confirmed_daily":3305,
    "deaths_daily":39,
    "recovered_daily":3750
  },
  {
    "confirmed":860200,
    "deaths":21810,
    "country":"Canada",
    "date":"2021-02-24T00:00:00.000Z",
    "population":75750184,
    "recovered":808449,
    "confirmed_daily":2994,
    "deaths_daily":47,
    "recovered_daily":3021
  },
  {
    "confirmed":863301,
    "deaths":21868,
    "country":"Canada",
    "date":"2021-02-25T00:00:00.000Z",
    "population":75750184,
    "recovered":811551,
    "confirmed_daily":3101,
    "deaths_daily":58,
    "recovered_daily":3102
  },
  {
    "confirmed":866528,
    "deaths":21916,
    "country":"Canada",
    "date":"2021-02-26T00:00:00.000Z",
    "population":75750184,
    "recovered":814559,
    "confirmed_daily":3227,
    "deaths_daily":48,
    "recovered_daily":3008
  },
  {
    "confirmed":869058,
    "deaths":21961,
    "country":"Canada",
    "date":"2021-02-27T00:00:00.000Z",
    "population":75750184,
    "recovered":816972,
    "confirmed_daily":2530,
    "deaths_daily":45,
    "recovered_daily":2413
  },
  {
    "confirmed":871243,
    "deaths":21995,
    "country":"Canada",
    "date":"2021-02-28T00:00:00.000Z",
    "population":75750184,
    "recovered":819420,
    "confirmed_daily":2185,
    "deaths_daily":34,
    "recovered_daily":2448
  },
  {
    "confirmed":874909,
    "deaths":22018,
    "country":"Canada",
    "date":"2021-03-01T00:00:00.000Z",
    "population":75750184,
    "recovered":823249,
    "confirmed_daily":3666,
    "deaths_daily":23,
    "recovered_daily":3829
  },
  {
    "confirmed":877747,
    "deaths":22046,
    "country":"Canada",
    "date":"2021-03-02T00:00:00.000Z",
    "population":75750184,
    "recovered":826172,
    "confirmed_daily":2838,
    "deaths_daily":28,
    "recovered_daily":2923
  },
  {
    "confirmed":880487,
    "deaths":22106,
    "country":"Canada",
    "date":"2021-03-03T00:00:00.000Z",
    "population":75750184,
    "recovered":829287,
    "confirmed_daily":2740,
    "deaths_daily":60,
    "recovered_daily":3115
  },
  {
    "confirmed":883619,
    "deaths":22152,
    "country":"Canada",
    "date":"2021-03-04T00:00:00.000Z",
    "population":75750184,
    "recovered":832084,
    "confirmed_daily":3132,
    "deaths_daily":46,
    "recovered_daily":2797
  },
  {
    "confirmed":886492,
    "deaths":22193,
    "country":"Canada",
    "date":"2021-03-05T00:00:00.000Z",
    "population":75750184,
    "recovered":834868,
    "confirmed_daily":2873,
    "deaths_daily":41,
    "recovered_daily":2784
  },
  {
    "confirmed":889255,
    "deaths":22214,
    "country":"Canada",
    "date":"2021-03-06T00:00:00.000Z",
    "population":75750184,
    "recovered":837730,
    "confirmed_daily":2763,
    "deaths_daily":21,
    "recovered_daily":2862
  },
  {
    "confirmed":891807,
    "deaths":22240,
    "country":"Canada",
    "date":"2021-03-07T00:00:00.000Z",
    "population":75750184,
    "recovered":839824,
    "confirmed_daily":2552,
    "deaths_daily":26,
    "recovered_daily":2094
  },
  {
    "confirmed":895889,
    "deaths":22277,
    "country":"Canada",
    "date":"2021-03-08T00:00:00.000Z",
    "population":75750184,
    "recovered":843901,
    "confirmed_daily":4082,
    "deaths_daily":37,
    "recovered_daily":4077
  },
  {
    "confirmed":898963,
    "deaths":22305,
    "country":"Canada",
    "date":"2021-03-09T00:00:00.000Z",
    "population":75750184,
    "recovered":846931,
    "confirmed_daily":3074,
    "deaths_daily":28,
    "recovered_daily":3030
  },
  {
    "confirmed":901948,
    "deaths":22336,
    "country":"Canada",
    "date":"2021-03-10T00:00:00.000Z",
    "population":75750184,
    "recovered":849784,
    "confirmed_daily":2985,
    "deaths_daily":31,
    "recovered_daily":2853
  },
  {
    "confirmed":905071,
    "deaths":22372,
    "country":"Canada",
    "date":"2021-03-11T00:00:00.000Z",
    "population":75750184,
    "recovered":852439,
    "confirmed_daily":3123,
    "deaths_daily":36,
    "recovered_daily":2655
  },
  {
    "confirmed":908645,
    "deaths":22405,
    "country":"Canada",
    "date":"2021-03-12T00:00:00.000Z",
    "population":75750184,
    "recovered":855849,
    "confirmed_daily":3574,
    "deaths_daily":33,
    "recovered_daily":3410
  },
  {
    "confirmed":911560,
    "deaths":22435,
    "country":"Canada",
    "date":"2021-03-13T00:00:00.000Z",
    "population":75750184,
    "recovered":858330,
    "confirmed_daily":2915,
    "deaths_daily":30,
    "recovered_daily":2481
  },
  {
    "confirmed":914204,
    "deaths":22464,
    "country":"Canada",
    "date":"2021-03-14T00:00:00.000Z",
    "population":75750184,
    "recovered":860779,
    "confirmed_daily":2644,
    "deaths_daily":29,
    "recovered_daily":2449
  },
  {
    "confirmed":917994,
    "deaths":22496,
    "country":"Canada",
    "date":"2021-03-15T00:00:00.000Z",
    "population":75750184,
    "recovered":864624,
    "confirmed_daily":3790,
    "deaths_daily":32,
    "recovered_daily":3845
  },
  {
    "confirmed":921011,
    "deaths":22520,
    "country":"Canada",
    "date":"2021-03-16T00:00:00.000Z",
    "population":75750184,
    "recovered":867542,
    "confirmed_daily":3017,
    "deaths_daily":24,
    "recovered_daily":2918
  },
  {
    "confirmed":924444,
    "deaths":22555,
    "country":"Canada",
    "date":"2021-03-17T00:00:00.000Z",
    "population":75750184,
    "recovered":870725,
    "confirmed_daily":3433,
    "deaths_daily":35,
    "recovered_daily":3183
  },
  {
    "confirmed":928117,
    "deaths":22591,
    "country":"Canada",
    "date":"2021-03-18T00:00:00.000Z",
    "population":75750184,
    "recovered":873615,
    "confirmed_daily":3673,
    "deaths_daily":36,
    "recovered_daily":2890
  },
  {
    "confirmed":932391,
    "deaths":22618,
    "country":"Canada",
    "date":"2021-03-19T00:00:00.000Z",
    "population":75750184,
    "recovered":876936,
    "confirmed_daily":4274,
    "deaths_daily":27,
    "recovered_daily":3321
  },
  {
    "confirmed":935714,
    "deaths":22644,
    "country":"Canada",
    "date":"2021-03-20T00:00:00.000Z",
    "population":75750184,
    "recovered":879517,
    "confirmed_daily":3323,
    "deaths_daily":26,
    "recovered_daily":2581
  },
  {
    "confirmed":938856,
    "deaths":22677,
    "country":"Canada",
    "date":"2021-03-21T00:00:00.000Z",
    "population":75750184,
    "recovered":882026,
    "confirmed_daily":3142,
    "deaths_daily":33,
    "recovered_daily":2509
  },
  {
    "confirmed":943715,
    "deaths":22717,
    "country":"Canada",
    "date":"2021-03-22T00:00:00.000Z",
    "population":75750184,
    "recovered":886109,
    "confirmed_daily":4859,
    "deaths_daily":40,
    "recovered_daily":4083
  },
  {
    "confirmed":947393,
    "deaths":22736,
    "country":"Canada",
    "date":"2021-03-23T00:00:00.000Z",
    "population":75750184,
    "recovered":889247,
    "confirmed_daily":3678,
    "deaths_daily":19,
    "recovered_daily":3138
  },
  {
    "confirmed":951589,
    "deaths":22760,
    "country":"Canada",
    "date":"2021-03-24T00:00:00.000Z",
    "population":75750184,
    "recovered":892201,
    "confirmed_daily":4196,
    "deaths_daily":24,
    "recovered_daily":2954
  },
  {
    "confirmed":956755,
    "deaths":22791,
    "country":"Canada",
    "date":"2021-03-25T00:00:00.000Z",
    "population":75750184,
    "recovered":895645,
    "confirmed_daily":5166,
    "deaths_daily":31,
    "recovered_daily":3444
  },
  {
    "confirmed":961839,
    "deaths":22827,
    "country":"Canada",
    "date":"2021-03-26T00:00:00.000Z",
    "population":75750184,
    "recovered":899230,
    "confirmed_daily":5084,
    "deaths_daily":36,
    "recovered_daily":3585
  },
  {
    "confirmed":966076,
    "deaths":22853,
    "country":"Canada",
    "date":"2021-03-27T00:00:00.000Z",
    "population":75750184,
    "recovered":902074,
    "confirmed_daily":4237,
    "deaths_daily":26,
    "recovered_daily":2844
  },
  {
    "confirmed":970166,
    "deaths":22881,
    "country":"Canada",
    "date":"2021-03-28T00:00:00.000Z",
    "population":75750184,
    "recovered":904909,
    "confirmed_daily":4090,
    "deaths_daily":28,
    "recovered_daily":2835
  },
  {
    "confirmed":976479,
    "deaths":22901,
    "country":"Canada",
    "date":"2021-03-29T00:00:00.000Z",
    "population":75750184,
    "recovered":909540,
    "confirmed_daily":6313,
    "deaths_daily":20,
    "recovered_daily":4631
  },
  {
    "confirmed":980365,
    "deaths":22927,
    "country":"Canada",
    "date":"2021-03-30T00:00:00.000Z",
    "population":75750184,
    "recovered":912684,
    "confirmed_daily":3886,
    "deaths_daily":26,
    "recovered_daily":3144
  },
  {
    "confirmed":989493,
    "deaths":22960,
    "country":"Canada",
    "date":"2021-03-31T00:00:00.000Z",
    "population":75750184,
    "recovered":918581,
    "confirmed_daily":9128,
    "deaths_daily":33,
    "recovered_daily":5897
  },
  {
    "confirmed":995249,
    "deaths":23003,
    "country":"Canada",
    "date":"2021-04-01T00:00:00.000Z",
    "population":75750184,
    "recovered":922632,
    "confirmed_daily":5756,
    "deaths_daily":43,
    "recovered_daily":4051
  },
  {
    "confirmed":998882,
    "deaths":23032,
    "country":"Canada",
    "date":"2021-04-02T00:00:00.000Z",
    "population":75750184,
    "recovered":924144,
    "confirmed_daily":3633,
    "deaths_daily":29,
    "recovered_daily":1512
  },
  {
    "confirmed":1005978,
    "deaths":23051,
    "country":"Canada",
    "date":"2021-04-03T00:00:00.000Z",
    "population":75750184,
    "recovered":929085,
    "confirmed_daily":7096,
    "deaths_daily":19,
    "recovered_daily":4941
  },
  {
    "confirmed":1009472,
    "deaths":23075,
    "country":"Canada",
    "date":"2021-04-04T00:00:00.000Z",
    "population":75750184,
    "recovered":930750,
    "confirmed_daily":3494,
    "deaths_daily":24,
    "recovered_daily":1665
  },
  {
    "confirmed":1017761,
    "deaths":23096,
    "country":"Canada",
    "date":"2021-04-05T00:00:00.000Z",
    "population":75750184,
    "recovered":937403,
    "confirmed_daily":8289,
    "deaths_daily":21,
    "recovered_daily":6653
  },
  {
    "confirmed":1028626,
    "deaths":23142,
    "country":"Canada",
    "date":"2021-04-06T00:00:00.000Z",
    "population":75750184,
    "recovered":945550,
    "confirmed_daily":10865,
    "deaths_daily":46,
    "recovered_daily":8147
  },
  {
    "confirmed":1036386,
    "deaths":23174,
    "country":"Canada",
    "date":"2021-04-07T00:00:00.000Z",
    "population":75750184,
    "recovered":950990,
    "confirmed_daily":7760,
    "deaths_daily":32,
    "recovered_daily":5440
  },
  {
    "confirmed":1044733,
    "deaths":23212,
    "country":"Canada",
    "date":"2021-04-08T00:00:00.000Z",
    "population":75750184,
    "recovered":956665,
    "confirmed_daily":8347,
    "deaths_daily":38,
    "recovered_daily":5675
  },
  {
    "confirmed":1053999,
    "deaths":23252,
    "country":"Canada",
    "date":"2021-04-09T00:00:00.000Z",
    "population":75750184,
    "recovered":962451,
    "confirmed_daily":9266,
    "deaths_daily":40,
    "recovered_daily":5786
  },
  {
    "confirmed":1061369,
    "deaths":23288,
    "country":"Canada",
    "date":"2021-04-10T00:00:00.000Z",
    "population":75750184,
    "recovered":967364,
    "confirmed_daily":7370,
    "deaths_daily":36,
    "recovered_daily":4913
  },
  {
    "confirmed":1069041,
    "deaths":23316,
    "country":"Canada",
    "date":"2021-04-11T00:00:00.000Z",
    "population":75750184,
    "recovered":972153,
    "confirmed_daily":7672,
    "deaths_daily":28,
    "recovered_daily":4789
  },
  {
    "confirmed":1079582,
    "deaths":23357,
    "country":"Canada",
    "date":"2021-04-12T00:00:00.000Z",
    "population":75750184,
    "recovered":979856,
    "confirmed_daily":10541,
    "deaths_daily":41,
    "recovered_daily":7703
  },
  {
    "confirmed":1087048,
    "deaths":23393,
    "country":"Canada",
    "date":"2021-04-13T00:00:00.000Z",
    "population":75750184,
    "recovered":986199,
    "confirmed_daily":7466,
    "deaths_daily":36,
    "recovered_daily":6343
  },
  {
    "confirmed":1096000,
    "deaths":23446,
    "country":"Canada",
    "date":"2021-04-14T00:00:00.000Z",
    "population":75750184,
    "recovered":992740,
    "confirmed_daily":8952,
    "deaths_daily":53,
    "recovered_daily":6541
  },
  {
    "confirmed":1105778,
    "deaths":23501,
    "country":"Canada",
    "date":"2021-04-15T00:00:00.000Z",
    "population":75750184,
    "recovered":999374,
    "confirmed_daily":9778,
    "deaths_daily":55,
    "recovered_daily":6634
  },
  {
    "confirmed":1115036,
    "deaths":23542,
    "country":"Canada",
    "date":"2021-04-16T00:00:00.000Z",
    "population":75750184,
    "recovered":1006819,
    "confirmed_daily":9258,
    "deaths_daily":41,
    "recovered_daily":7445
  },
  {
    "confirmed":1122116,
    "deaths":23590,
    "country":"Canada",
    "date":"2021-04-17T00:00:00.000Z",
    "population":75750184,
    "recovered":1013533,
    "confirmed_daily":7080,
    "deaths_daily":48,
    "recovered_daily":6714
  },
  {
    "confirmed":1130006,
    "deaths":23624,
    "country":"Canada",
    "date":"2021-04-18T00:00:00.000Z",
    "population":75750184,
    "recovered":1020054,
    "confirmed_daily":7890,
    "deaths_daily":34,
    "recovered_daily":6521
  },
  {
    "confirmed":1140322,
    "deaths":23668,
    "country":"Canada",
    "date":"2021-04-19T00:00:00.000Z",
    "population":75750184,
    "recovered":1030214,
    "confirmed_daily":10316,
    "deaths_daily":44,
    "recovered_daily":10160
  },
  {
    "confirmed":1147636,
    "deaths":23714,
    "country":"Canada",
    "date":"2021-04-20T00:00:00.000Z",
    "population":75750184,
    "recovered":1038181,
    "confirmed_daily":7314,
    "deaths_daily":46,
    "recovered_daily":7967
  },
  {
    "confirmed":1155855,
    "deaths":23764,
    "country":"Canada",
    "date":"2021-04-21T00:00:00.000Z",
    "population":75750184,
    "recovered":1046969,
    "confirmed_daily":8219,
    "deaths_daily":50,
    "recovered_daily":8788
  },
  {
    "confirmed":1164756,
    "deaths":23823,
    "country":"Canada",
    "date":"2021-04-22T00:00:00.000Z",
    "population":75750184,
    "recovered":1057653,
    "confirmed_daily":8901,
    "deaths_daily":59,
    "recovered_daily":10684
  },
  {
    "confirmed":1173220,
    "deaths":23884,
    "country":"Canada",
    "date":"2021-04-23T00:00:00.000Z",
    "population":75750184,
    "recovered":1066739,
    "confirmed_daily":8464,
    "deaths_daily":61,
    "recovered_daily":9086
  },
  {
    "confirmed":1180681,
    "deaths":23928,
    "country":"Canada",
    "date":"2021-04-24T00:00:00.000Z",
    "population":75750184,
    "recovered":1074073,
    "confirmed_daily":7461,
    "deaths_daily":44,
    "recovered_daily":7334
  },
  {
    "confirmed":1187484,
    "deaths":23966,
    "country":"Canada",
    "date":"2021-04-25T00:00:00.000Z",
    "population":75750184,
    "recovered":1081040,
    "confirmed_daily":6803,
    "deaths_daily":38,
    "recovered_daily":6967
  },
  {
    "confirmed":1196400,
    "deaths":24025,
    "country":"Canada",
    "date":"2021-04-26T00:00:00.000Z",
    "population":75750184,
    "recovered":1091032,
    "confirmed_daily":8916,
    "deaths_daily":59,
    "recovered_daily":9992
  },
  {
    "confirmed":1203429,
    "deaths":24066,
    "country":"Canada",
    "date":"2021-04-27T00:00:00.000Z",
    "population":75750184,
    "recovered":1099133,
    "confirmed_daily":7029,
    "deaths_daily":41,
    "recovered_daily":8101
  }
]